-20.0205; -19.6723; -19.3634; -19.095; -18.868; -18.6836; -18.5423; -18.4448; -18.3915; -18.3825; -18.418; -18.4977; -18.6215; -18.7887; -18.5343; -18.0255; -17.5176; -17.1177; -16.8786; -16.6487; -16.4287; -16.2197; -16.0224; -15.8376; -15.6662; -15.5087; -15.3658; -15.2381; -15.126; -15.0302; -14.9509; -14.8885; -14.8432; -14.8152; -14.8047; -14.8116; -14.836; -14.8778; -14.9367; -15.0127; -15.1053; -15.2143; -15.3391; -15.4792; -15.6342; -15.8034; -15.9861; -16.1816; -16.389; -16.6077; -16.8366; -17.0748; -17.3214; -17.5755; -17.8358; -18.1016; -18.3715; -18.6446; -18.9197; -19.1958; -19.4716; -19.7462; -20.0184; -20.287; -20.551; -20.8094; -21.061; -21.3049; -21.54; -21.7655; -21.9804; -22.1839; -22.3751; -22.5532; -22.9422; -23.3404; -23.7183; -24.0743; -24.4071; -24.7153; -24.9975; -25.2529; -25.4801; -25.6785; -25.8471; -25.9852; -26.0923; -26.168; -25.9431; -25.2848; -24.6433; -24.0213; -23.4211; -22.8453; -22.2959; -21.7754; -21.2857; -20.8288; -20.4065
-10.591; -9.89586; -9.57932; -9.67968; -9.81655; -9.9894; -10.1975; -13.5598; -13.2836; -12.9749; -12.6349; -12.2649; -12.1338; -12.5597; -13.011; -13.486; -13.2439; -12.9913; -12.7826; -12.6184; -12.4995; -12.4262; -12.399; -12.4177; -12.2986; -11.9787; -11.6864; -11.4228; -11.1888; -10.9853; -10.813; -10.6725; -10.5644; -10.489; -10.4465; -10.4659; -10.5137; -10.5964; -10.7136; -10.8647; -11.0494; -12.7332; -12.484; -12.2039; -12.106; -12.4444; -12.8099; -13.2012; -13.6166; -14.0545; -14.513; -14.9853; -15.3779; -16.1833; -16.2999; -16.8258; -17.3922; -17.9972; -18.6384; -19.2432; -19.7965; -19.6527; -20.8931; -21.4319; -21.9614; -22.4794; -22.984; -23.4729; -23.9443; -24.3962; -24.8268; -25.2344; -25.9257; -26.7916; -27.6236; -28.4185; -29.1731; -29.8844; -30.5497; -31.1662; -31.7314; -31.8873; -30.7124; -29.3076; -27.9041; -26.5073; -25.1229; -24.2436; -22.4132; -21.0986; -19.8179; -18.5761; -17.3782; -16.2288; -15.1325; -14.0937; -13.1164; -12.2045; -11.3616 
-4.78394; -4.82509; -4.92136; -5.07231; -5.27733; -5.53564; -5.84622; -6.20792; -6.61938; -8.92093; -8.41471; -8.13616; -8.72965; -9.32303; -8.76312; -8.26341; -7.82564; -7.45136; -7.1419; -6.89834; -6.72156; -6.61222; -6.57071; -6.59723; -6.69173; -6.85393; -7.08332; -7.37917; -7.36752; -7.06687; -6.8128; -6.60617; -6.44765; -6.33774; -6.27676; -6.26486; -6.30201; -6.38801; -6.52248; -6.70487; -6.97119; -7.26752; -7.09092; -6.9924; -6.97225; -8.96951; -8.83313; -8.61917; -8.32842; -8.03801; -8.47877; -8.99222; -9.57648; -10.2294; -13.0515; -12.2687; -12.5748; -13.4758; -14.4311; -16.5629; -16.4901; -17.586; -18.7207; -20.11; -21.0893; -22.3141; -23.5597; -23.1789; -26.0934; -27.0456; -27.6932; -27.585; -29.7566; -31.0528; -31.7012; -33.4896; -34.6205; -35.6872; -35.3147; -37.5609; -35.5747; -34.9965; -34.0867; -32.8489; -31.2879; -29.4098; -27.2217; -24.7317; -21.9492; -21.1156; -16.4513; -12.0102; -13.293; -9.56698; -8.05243; -6.39158; -4.99239; -4.86766; -4.79812 
-7.21077; -6.65014; -5.69265; -4.9068; -4.29534; -4.05713; -4.10997; -4.19861; -4.32277; -4.48203; -4.67587; -5.00805; -5.20189; -4.46968; -4.04041; -3.53623; -3.07892; -2.63018; -2.19164; -1.76487; -1.35138; -0.952587; -0.755941; -0.789113; -0.911591; -1.12306; -1.42292; -1.81028; -2.28395; -2.84247; -2.80396; -2.53361; -2.32694; -2.18454; -2.10677; -2.09377; -2.40744; -3.17576; -4.26454; -4.21079; -4.11437; -4.02431; -4.20473; -4.42621; -4.68796; -5.43108; -5.51548; -4.04367; -2.47871; -1.72906; -2.31275; -5.0075; -4.23412; -4.63013; -5.58216; -6.61857; -8.26434; -8.92941; -10.1111; -13.0629; -12.1149; -12.9518; -14.1339; -16.5726; -16.8281; -18.3314; -20.0675; -21.5227; -22.7633; -24.148; -25.1615; -25.2942; -25.8291; -25.8288; -25.9899; -26.3118; -29.2063; -28.5661; -28.2302; -28.2476; -29.382; -31.0419; -32.8607; -34.8316; -34.9187; -35.8563; -22.9938; -22.8544; -21.2397; -19.6509; -16.7119; -14.6299; -14.5462; -19.4863; -15.4228; -5.28117; -6.6491; -6.88851; -7.07593 
-2.08056; -1.92388; -1.81102; -1.74237; -1.71818; -1.73857; -1.77955; -1.93751; -2.13255; -2.36445; -2.63294; -2.9377; -3.10725; -2.64835; -2.22718; -1.84447; -1.50088; -1.19699; -0.933309; -0.710275; -0.528278; 0.0215049; 0.494304; 0.945125; 1.37258; 1.77538; 2.15234; 2.50236; 2.82444; 2.49844; 1.70789; 1.55392; 1.8066; 1.61176; 0.746403; -0.150028; -0.950949; -0.91414; -0.930352; -0.999368; -1.12082; -1.52734; -2.24913; -2.94991; -3.22107; -3.198; -3.20559; -3.3322; -4.5984; -3.11987; -1.94194; -1.15848; -0.653807; -0.993088; -0.611266; -0.216968; -0.337485; -1.05007; -1.91836; -5.06052; -4.11017; -5.42676; -9.11487; -8.45783; -8.32188; -9.29412; -13.5443; -12.1969; -13.1739; -12.5417; -11.6721; -12.0692; -13.3614; -17.4213; -16.4291; -16.0331; -16.5046; -16.6998; -17.0934; -17.684; -21.3319; -20.7372; -22.7803; -22.4474; -22.3953; -22.6241; -23.1331; -22.5919; -22.1192; -19.7384; -19.0546; -14.7504; -15.7159; -15.6171; -12.9509; -7.0928; -3.46846; -2.52304; -2.2805 
0.180947; 0.367846; 0.502639; 0.59814; 0.547188; 0.453446; -0.316859; -0.137416; -0.0848399; -0.349811; -0.657337; -1.00718; -0.52559; -0.604733; -0.117954; 0.32402; 0.720625; 1.07136; 1.3758; 1.63356; 1.84431; 2.00775; 2.12364; 2.19174; 2.61795; 3.09416; 3.53933; 3.95226; 4.33187; 4.67719; 4.98733; 5.16403; 3.55876; 3.45233; 2.42378; 1.75748; 1.86022; 1.07063; -0.142247; -0.772479; -1.67079; -1.86395; -1.71546; -1.4074; -1.15424; -0.956981; -0.816498; -0.73356; 0.301525; 1.46819; 2.56767; 3.59693; 3.87774; 3.73238; 3.5463; 3.27924; 2.89626; 2.46808; 1.99597; 1.48131; -0.92559; -0.485448; -0.142099; -0.236049; -0.647894; -1.09225; -1.56787; -1.94015; -6.02077; -5.93219; -5.79434; -5.60672; -5.40345; -5.15245; -4.15948; -5.58459; -5.73598; -10.0262; -9.55584; -8.85449; -8.07568; -8.39816; -8.319; -8.70736; -8.76622; -8.49557; -8.10381; -9.03045; -9.76447; -7.241; -6.56292; -6.13979; -5.77943; -5.48305; -4.92297; -3.03681; -1.19502; -0.346527; -0.0574387 
2.458; 2.66746; 2.70809; 2.70132; 2.64696; 2.54485; 2.39482; 2.19677; 1.95062; 1.65633; 1.31393; 1.67083; 1.70362; 1.43695; 1.98408; 2.48045; 2.92565; 3.31929; 3.66107; 3.95071; 4.18795; 4.37258; 4.50438; 4.58317; 4.60875; 4.58094; 4.9403; 5.41425; 5.84955; 6.24515; 6.60016; 5.62626; 2.9849; 2.54796; 2.12093; 2.79073; 1.6963; 0.611514; -0.460507; -0.638598; -0.10075; 0.378795; 0.798598; 1.15732; 1.45371; 1.68664; 1.85506; 1.95804; 3.24202; 4.58276; 5.84698; 6.03285; 5.9084; 5.73794; 5.52216; 5.26174; 4.95737; 4.48844; 3.94407; 3.35106; 2.71101; 2.27227; 1.74909; 1.31311; 0.838677; 0.327054; 0.0871925; -0.243671; -0.293448; -0.192092; -0.0344382; -0.163814; -0.40032; -0.691278; -1.0811; -1.09083; -0.926628; -0.589368; -0.1664; 0.202954; -0.517826; -1.68697; -1.20281; -1.40918; -1.71851; -2.1301; -2.6429; -3.2557; -3.9671; -3.96648; -3.74907; -3.25927; -2.84116; -2.4961; -2.0493; -1.04543; 1.08202; 1.84636; 2.18154 
4.64392; 4.74265; 4.78991; 4.78545; 4.729; 4.6203; 4.4591; 3.75485; 3.97825; 3.6582; 3.28484; 3.83929; 3.88518; 3.48084; 4.08335; 4.62953; 5.11914; 5.55198; 5.92787; 6.24668; 6.50826; 6.71249; 6.85922; 6.94831; 6.97958; 6.95285; 6.8679; 6.89151; 7.38078; 7.82505; 7.77722; 6.0838; 3.89525; 3.76252; 3.0853; 2.337; 1.63322; 0.717338; 1.00929; 1.68135; 2.29012; 2.83396; 3.31132; 3.72073; 4.06081; 4.33026; 4.52789; 4.59739; 6.18963; 7.69999; 8.1612; 7.93347; 7.9209; 7.72507; 7.47979; 7.18582; 6.84389; 6.45473; 5.89781; 5.22803; 4.50544; 3.95319; 3.4597; 2.86566; 2.32991; 1.75249; 1.98099; 2.35344; 2.57159; 2.4579; 2.27798; 2.07004; 1.86314; 1.30862; 1.20513; 1.44966; 1.63448; 1.75917; 1.9612; 2.37625; 2.73017; 0.936282; 1.4676; 1.93272; 2.33142; 2.00852; 1.43192; -0.743777; -0.0545056; -0.391318; -0.19847; -0.099112; 0.103982; 0.497767; 1.00244; 1.42796; 3.36756; 4.0605; 4.494 
6.69291; 6.80244; 6.85669; 6.85535; 6.79809; 6.68453; 6.51432; 6.28707; 6.0024; 5.65996; 5.25939; 5.96455; 6.02512; 5.53109; 6.18426; 6.77589; 7.30595; 7.77445; 8.18139; 8.52678; 8.81063; 9.03291; 9.19358; 9.29253; 9.32964; 9.30472; 9.21753; 9.06778; 8.92903; 9.42047; 8.70116; 7.78998; 7.44533; 7.97897; 7.65927; 6.0792; 4.28884; 4.3441; 4.69817; 4.95525; 5.11567; 5.29352; 5.82817; 6.28839; 6.67265; 6.97953; 7.20768; 7.38462; 9.15085; 10.2572; 10.2; 10.0872; 9.91965; 9.69813; 9.42352; 9.09662; 8.7182; 7.71099; 7.80975; 7.11633; 6.3128; 5.80863; 5.15587; 4.42497; 3.82904; 3.56702; 4.0356; 4.44856; 4.80503; 4.73451; 4.54806; 3.69692; 3.75517; 3.35866; 3.68981; 3.95803; 4.16296; 4.30419; 4.38117; 4.56261; 4.95451; 3.54396; 4.11814; 4.62131; 5.05343; 5.41439; 5.51888; 3.24221; 3.87555; 3.17858; 3.37994; 3.47978; 3.47876; 3.505; 4.04163; 4.51772; 5.66658; 6.3092; 6.52841 
8.73121; 8.85149; 8.91313; 8.91575; 8.85892; 8.74218; 8.56503; 7.67305; 7.97261; 7.66579; 7.24159; 7.94766; 7.87093; 7.59189; 8.29122; 8.92414; 9.49087; 9.99165; 10.4267; 10.7962; 11.1003; 11.3391; 11.5127; 11.621; 11.664; 11.6415; 11.5533; 11.3989; 11.1781; 11.0228; 12.1189; 13.3973; 14.2449; 11.7444; 9.84251; 7.81874; 7.81326; 8.01038; 8.38271; 8.65286; 8.82132; 8.88839; 8.85423; 8.86586; 9.29488; 9.64014; 9.90014; 10.1961; 11.8677; 11.6956; 11.7685; 11.9007; 11.9089; 11.6614; 11.3575; 10.9983; 10.5843; 10.1165; 9.5954; 9.02175; 7.77144; 7.56159; 6.84437; 6.07842; 5.33936; 5.56954; 6.08113; 6.53363; 6.92619; 7.02692; 6.76641; 6.23701; 5.64916; 5.79252; 6.14924; 6.44006; 6.66466; 6.82262; 6.91336; 6.76676; 7.19568; 5.98755; 6.7545; 7.29231; 7.75503; 7.85727; 7.54466; 7.30731; 7.83165; 6.73801; 6.9578; 7.05589; 7.04591; 7.56305; 7.58479; 7.80997; 8.04412; 8.31597; 8.55261 
10.9124; 10.8944; 10.9638; 10.9712; 10.9161; 10.7978; 10.6157; 10.3692; 10.0575; 9.6799; 9.23552; 10.108; 10.2023; 9.66752; 10.4087; 11.0789; 11.6786; 12.2085; 12.6688; 13.06; 13.3824; 13.6362; 13.8217; 13.9389; 13.7337; 13.392; 13.0251; 12.6332; 12.2163; 12.351; 14.9809; 18.994; 15.4949; 13.9581; 11.7298; 11.2271; 11.1651; 11.6598; 12.0471; 12.3279; 12.5029; 12.5724; 12.5367; 12.3956; 12.149; 12.3179; 12.6111; 13.0381; 14.3772; 14.3502; 14.2596; 14.1068; 13.8929; 13.619; 13.286; 12.8948; 12.4462; 11.941; 11.3797; 10.7631; 10.0374; 9.3095; 8.52887; 7.69701; 6.95406; 7.5687; 8.12198; 8.61313; 8.97517; 9.23693; 8.73622; 7.82634; 7.75931; 8.20817; 8.58887; 8.9013; 9.14518; 9.32008; 9.42539; 9.46033; 9.45863; 9.96459; 9.38225; 9.95147; 10.4422; 10.8546; 11.1888; 11.4446; 11.6219; 10.6402; 10.5428; 10.637; 11.7772; 11.609; 11.8884; 11.009; 10.3496; 10.7279; 10.8537 
13.371; 13.3515; 13.2659; 13.115; 12.9742; 12.856; 12.671; 12.4184; 11.9028; 11.7066; 11.2453; 12.1367; 12.2498; 12.2376; 12.5411; 13.2447; 13.874; 14.4297; 14.9126; 15.3231; 15.6619; 15.6418; 15.3561; 15.044; 14.7061; 14.3426; 13.9536; 13.5392; 13.0995; 13.0939; 12.2667; 14.9199; 18.395; 15.8242; 14.3895; 14.7555; 14.7894; 15.2998; 15.6991; 15.9883; 16.1683; 15.7604; 15.7975; 15.9432; 15.8023; 15.4385; 15.3466; 15.9176; 16.4419; 15.6015; 15.7113; 15.8859; 15.9265; 15.6737; 15.3532; 14.9649; 14.5084; 13.9832; 13.3885; 12.8114; 12.5159; 11.7664; 10.898; 9.93372; 9.2406; 9.35183; 9.57569; 9.99358; 10.3676; 10.6972; 10.7102; 10.1172; 10.1375; 10.6108; 11.014; 11.3471; 11.6099; 11.802; 11.9227; 11.9711; 11.9463; 12.3935; 12.0069; 12.6045; 13.1207; 13.5559; 13.9103; 14.1839; 14.3764; 14.4876; 14.1427; 16.7157; 15.9737; 14.6761; 14.0403; 13.5213; 12.9792; 13.2351; 13.3235 
15.8118; 15.7789; 15.6797; 15.5147; 15.2845; 14.9893; 14.7352; 14.4788; 14.1508; 13.7501; 13.2754; 14.1431; 14.2764; 13.881; 14.6932; 15.4265; 16.0818; 16.6604; 17.1631; 17.2009; 16.9482; 16.6682; 16.3614; 15.9715; 15.725; 15.3683; 14.9818; 14.565; 14.1167; 13.6439; 12.7748; 15.7917; 19.1963; 18.0917; 17.8746; 17.9992; 18.4157; 18.938; 19.3463; 19.6418; 19.8254; 19.8979; 19.8594; 19.7101; 19.4494; 19.0767; 18.5911; 18.5069; 18.5577; 18.57; 18.5124; 18.3854; 18.1892; 17.924; 17.5895; 17.1854; 16.7112; 16.1662; 16.6741; 15.5381; 15.5985; 14.8998; 13.979; 12.9591; 12.3521; 12.48; 12.4868; 12.3995; 12.2189; 12.1182; 12.4263; 12.072; 12.5096; 13.0054; 13.4298; 13.7828; 14.0642; 14.2736; 14.4104; 14.4737; 14.4622; 14.5144; 14.6339; 15.2569; 15.7963; 16.2525; 16.6259; 16.9164; 16.8244; 16.2165; 17.5298; 18.5424; 18.0503; 17.4893; 16.663; 15.6298; 15.3744; 15.6884; 15.7772 
16.2066; 16.6685; 17.1388; 17.6175; 17.6557; 17.3467; 16.9726; 16.5552; 15.777; 15.8151; 15.9262; 16.132; 16.2867; 16.028; 16.8697; 17.6289; 18.307; 18.7256; 18.5081; 18.2617; 18.05; 17.7954; 17.5132; 17.2032; 16.8651; 16.4983; 15.898; 15.6756; 15.2178; 14.7347; 14.3293; 18; 18.7044; 20.04; 21.3619; 21.4023; 22.0511; 22.5818; 22.7487; 22.7046; 22.6043; 22.4475; 22.234; 21.9634; 21.6349; 21.2476; 20.74; 20.2478; 20.7779; 20.7178; 19.4391; 18.9037; 19.8018; 19.8246; 19.8283; 19.4102; 19.1242; 20.2705; 19.8887; 19.181; 18.6582; 18.0543; 17.069; 15.9637; 15.5549; 15.6077; 15.6016; 15.5001; 15.304; 15.0138; 14.6298; 14.2573; 15.2344; 16.2044; 17.1393; 18.0396; 17.2291; 16.7402; 16.8939; 16.9732; 16.977; 16.9035; 17.2688; 17.9145; 18.3847; 18.6264; 17.9098; 17.1602; 15.3338; 19.9662; 19.0455; 19.9671; 19.7015; 18.6758; 17.6208; 17.2312; 17.339; 17.9408; 16.0374 
18.8541; 18.8829; 18.9268; 18.8991; 18.8008; 18.6322; 18.976; 18.8579; 18.3403; 17.9063; 17.8801; 18.1078; 18.2851; 18.2085; 19.0757; 19.8571; 19.9628; 19.8259; 19.6763; 19.4631; 19.2232; 18.9569; 18.6639; 18.344; 17.9967; 17.6213; 17.2172; 16.7833; 16.3185; 16.1773; 16.9205; 22.5832; 24.3466; 27.1477; 23.4639; 24.3407; 24.5757; 24.6421; 24.6514; 24.6041; 24.5002; 23.6602; 23.8776; 23.8475; 23.5143; 23.0023; 22.5248; 22.0098; 21.4571; 22.187; 23.8686; 23.042; 21.2984; 19.563; 18.4669; 23.4966; 26.9191; 22.9453; 23.7122; 22.2481; 21.7018; 21.0753; 19.8253; 19.3107; 18.7322; 18.7414; 18.7212; 18.6048; 18.3929; 18.0862; 17.3625; 16.825; 16.4802; 17.3573; 18.1931; 18.9891; 19.8454; 20.7146; 21.5488; 22.3483; 23.1132; 23.4087; 21.2316; 19.9637; 19.546; 18.989; 17.9346; 18.9395; 22.8932; 25.2059; 23.7518; 20.2912; 20.859; 19.6828; 19.0175; 19.1853; 19.3036; 19.3966; 19.4806 
21.5968; 21.5056; 21.5363; 21.4966; 21.3874; 21.209; 20.9618; 20.6453; 19.7409; 19.9376; 19.8245; 20.0748; 20.2759; 20.4277; 21.3163; 21.3655; 21.2417; 21.0662; 20.865; 20.6382; 20.3862; 19.8912; 19.8059; 19.4772; 19.122; 18.7397; 18.3294; 17.8901; 17.4205; 16.9102; 20.1542; 23.5632; 26.2916; 26.46; 26.5787; 24.0379; 24.6416; 26.0374; 26.558; 26.5073; 26.4003; 26.2368; 26.0165; 25.7387; 25.2563; 24.7906; 23.7104; 23.753; 23.1807; 22.572; 23.7543; 25.7669; 26.5219; 23.5933; 22.3229; 34.6456; 34.1555; 30.6819; 26.8744; 25.3042; 24.7358; 23.9113; 23.3031; 22.486; 21.8913; 21.8878; 21.8523; 21.7202; 21.4925; 20.5661; 19.9393; 19.4993; 18.8818; 18.7093; 19.5641; 20.3795; 21.1567; 21.897; 22.6014; 23.4058; 24.2048; 25.2047; 31.9678; 27.9213; 23.9439; 20.6859; 25.2361; 30.8724; 30.8077; 29.19; 27.1137; 21.1968; 21.1148; 21.1252; 21.3233; 21.3222; 21.4832; 21.5787; 21.6165 
23.362; 23.2207; 23.2488; 23.2013; 23.0844; 22.9262; 22.7267; 22.4855; 22.2021; 21.8758; 21.7377; 22.0373; 22.2634; 22.6911; 22.7615; 22.6198; 22.4527; 22.2609; 22.045; 21.805; 21.5413; 21.2535; 20.9416; 20.6051; 20.2433; 19.8555; 19.4408; 18.998; 18.5257; 17.9995; 23.365; 23.4141; 25.244; 27.0413; 24.9996; 25.1666; 25.8294; 26.4668; 27.0793; 28.2019; 27.6915; 27.8574; 27.9202; 27.5099; 27.0524; 26.5619; 26.0383; 25.4814; 24.8909; 23.734; 23.6059; 25.4611; 27.5373; 29.6194; 28.6383; 35.2642; 35.4125; 30.0237; 23.2814; 29.6853; 27.3501; 27.7623; 26.3574; 25.648; 25.0389; 25.091; 25.0016; 24.8817; 23.9429; 23.2679; 22.7366; 22.1526; 21.5156; 20.8248; 20.9392; 21.7713; 22.5661; 23.3249; 24.0488; 24.7388; 25.3956; 27.5445; 31.7023; 30.9197; 30.2422; 28.1993; 30.4975; 31.1248; 31.4019; 27.263; 25.2704; 22.0218; 23.8355; 23.9573; 24.3577; 23.5611; 23.2812; 23.3544; 23.3842 
25.0177; 24.8382; 24.7484; 24.7314; 24.683; 24.5345; 24.33; 23.9148; 23.8305; 23.5735; 23.6586; 23.9096; 24.2072; 23.9852; 23.8519; 23.7133; 23.5694; 23.4199; 23.2186; 22.9658; 22.6908; 22.3934; 22.0733; 21.73; 21.3628; 20.971; 20.5534; 19.8911; 19.6361; 19.0931; 22.365; 21.3329; 25.7127; 26.5006; 25.0726; 24.8249; 25.7325; 26.6213; 27.4924; 28.5988; 29.5; 30.0612; 29.7729; 29.319; 28.8346; 27.6801; 27.7747; 27.1988; 26.5915; 25.9521; 25.2796; 25.1605; 27.2912; 29.4277; 31.5729; 32.081; 33.0367; 34; 33.5383; 30.8994; 30.3316; 29.652; 28.9284; 27.0353; 28.1819; 27.9951; 27.8657; 27.2195; 26.4599; 25.9524; 25.3961; 24.7906; 23.8644; 23.4301; 22.6731; 23.1675; 23.9775; 24.7527; 25.4944; 26.2035; 27.8927; 30.9266; 31.7865; 31.5138; 31.1353; 29.0184; 28.7549; 29.4034; 28.2246; 27.4709; 24.7074; 25.0392; 26.2049; 26.0028; 27.0639; 27.5672; 25.1053; 25.0348; 25.0452 
26.6335; 26.4497; 26.2377; 26.2247; 26.173; 26.0919; 25.9635; 25.7691; 25.543; 25.4766; 25.5873; 25.6664; 24.3293; 24.3628; 24.393; 24.42; 23.929; 23.7748; 23.6155; 23.451; 23.2808; 23.1048; 22.9225; 22.7336; 22.4827; 22.0882; 21.6693; 21.2249; 20.7536; 19.3988; 19.4544; 15.0997; 20.3989; 26.2675; 24.8967; 25.8446; 26.774; 27.6677; 28.3889; 29.1175; 29.8549; 30.5822; 30.9086; 30.7389; 30.5701; 30.0682; 29.5025; 28.9087; 27.7139; 27.6338; 26.9508; 26.2356; 27.0446; 29.2307; 30.7062; 32.6053; 33.439; 32.6638; 31.8103; 30.7398; 29.9375; 28.9116; 28.6481; 30.8972; 29.5615; 29.5058; 29.7212; 28.9668; 28.8947; 28.6253; 27.9553; 27.4189; 26.7474; 26.0292; 25.2629; 24.4471; 25.394; 26.1836; 26.9413; 29.6394; 29.2881; 26.749; 27.7986; 29.6056; 30.2103; 28.2775; 28.8669; 30.761; 29.7688; 30.6485; 27.8336; 27.5792; 27.96; 27.8054; 27.9697; 26.7913; 25.8478; 26.6285; 26.6996 
27.5669; 27.3639; 27.7355; 27.6979; 27.0651; 26.4334; 26.1479; 26.6202; 27.1187; 27.6629; 27.3105; 25.5436; 24.6209; 24.6522; 24.6808; 24.7067; 24.73; 24.7507; 23.9648; 23.797; 23.6241; 23.446; 23.2621; 23.072; 22.8754; 22.6716; 22.4601; 22.2403; 21.8801; 19.4023; 20.3646; 21.4148; 24.9181; 24.6999; 25.3182; 26.0345; 26.7541; 27.4782; 28.2081; 28.9454; 29.6657; 30.0775; 30.8838; 30.7452; 30.5751; 30.4057; 30.2365; 30.0673; 29.8977; 29.3146; 28.6229; 27.9014; 27.1488; 29.0276; 30.8818; 31.9197; 31.3506; 30.8862; 28.8696; 28.2766; 28.7727; 28.6284; 28.2479; 29.7932; 30.6967; 30.0199; 28.5007; 28.7707; 28.9812; 28.8583; 28.7345; 28.6096; 28.4834; 27.6444; 27.854; 27.0349; 26.8185; 27.6444; 27.7008; 27.5721; 25.9923; 27.0348; 27.1635; 28.5679; 27.896; 27.6621; 27.5063; 29.6999; 29.0156; 28.2506; 28.9133; 28.6954; 27.4284; 27.1383; 27.23; 26.5883; 25.5744; 26.1998; 26.8576 
27.7991; 26.956; 26.6866; 26.3572; 27.1527; 26.5128; 26.0947; 26.5728; 27.1009; 27.5387; 26.6212; 25.4946; 24.9107; 24.9397; 24.9666; 24.9914; 25.0141; 25.0349; 25.0537; 25.0706; 23.9675; 23.7877; 23.6027; 23.412; 23.2153; 23.012; 22.8015; 22.5832; 22.9458; 18.5413; 20.0955; 24.5899; 24.029; 24.5513; 25.1027; 25.8269; 26.554; 27.2853; 28.0223; 28.7529; 29.1663; 29.5796; 30.1401; 30.8478; 30.5793; 30.409; 30.239; 30.0689; 29.8984; 29.727; 29.5546; 29.3806; 28.8193; 28.818; 30.8789; 30.6418; 29.3501; 29.1511; 25.922; 25.6734; 28.0262; 28.6582; 28.0135; 29.5298; 29.9364; 28.4189; 28.3027; 28.577; 28.8519; 28.9423; 28.8171; 28.6909; 28.5636; 28.4348; 28.3043; 27.8282; 27.9431; 26.9241; 25.9292; 25.3767; 26.4447; 27.5043; 26.0993; 27.9092; 26.8307; 26.9665; 27.2081; 27.893; 28.04; 28.04; 28.3021; 28.0282; 27.7378; 26.4703; 26.5599; 27.0488; 27.1975; 27.3965; 27.597 
26.9813; 26.8633; 26.7457; 26.6281; 26.6121; 26.5908; 26.0414; 26.5255; 27.0812; 26.3466; 25.419; 24.6598; 23.4571; 23.7128; 24.403; 25.1132; 25.2967; 25.3175; 25.337; 25.355; 25.3718; 25.3872; 23.945; 23.7543; 23.5582; 23.356; 23.1471; 22.9489; 15.602; 23.96; 23.96; 24.549; 24.4068; 24.4027; 24.9219; 25.6188; 26.3518; 27.0887; 27.831; 28.2585; 28.6736; 29.0875; 29.5011; 30.9614; 30.6707; 30.412; 30.2415; 30.0709; 29.8999; 29.728; 29.555; 29.3804; 29.2038; 29.3035; 30.6844; 29.3688; 28.0613; 26.7593; 24.1089; 24.9149; 30.8539; 28.6303; 28.2582; 28.2077; 29.2095; 28.4841; 28.2364; 28.3851; 28.6633; 28.9421; 28.8998; 28.7726; 28.6443; 28.5148; 28.3837; 27.9155; 27.1676; 26.8588; 25.6289; 23.3178; 27.0668; 25.778; 25.6891; 27.1554; 27.183; 27.1615; 27.6118; 27.96; 27.8104; 27.96; 28.1044; 27.7814; 27.2133; 27; 27; 27; 27.0752; 27.2758; 27.4775 
26.8901; 26.7712; 26.6524; 26.5334; 26.4142; 26.6676; 26.0161; 26.4989; 26.0975; 25.2772; 24.6249; 23.591; 22.1008; 21.0921; 20.8846; 21.3204; 22.0756; 22.8453; 23.6309; 24.4343; 25.2572; 25.675; 25.6921; 25.7086; 23.9046; 23.7041; 22.8335; 23.3775; 16.7984; 23.96; 24.04; 24.1613; 24.4395; 24.2536; 24.7725; 25.4099; 26.1472; 26.8881; 27.3517; 27.7705; 28.1864; 28.6; 29.0123; 30.5268; 30.7823; 30.4891; 30.2441; 30.0734; 29.9023; 29.7303; 29.5571; 29.3983; 29.5673; 30.6217; 29.7257; 28.0443; 26.6067; 25.2701; 24.2731; 28.9454; 33.696; 29.4954; 29.4486; 29.3965; 30.1896; 28.9093; 28.8375; 28.586; 28.4755; 28.7567; 28.9825; 28.8546; 28.7258; 28.5958; 28.4704; 27.4904; 26.398; 25.1684; 26.8624; 26.3314; 26.5336; 26.0858; 26.9123; 27.8527; 27.0003; 27.96; 28.6394; 27.8346; 26.5626; 28.0958; 28.3056; 28.5148; 27.9722; 27; 27; 27; 27; 27.1548; 27.1072 
26.7989; 26.6792; 26.5595; 26.4395; 26.319; 26.1977; 26.088; 25.86; 25.2008; 24.5461; 23.7715; 22.5379; 21.2921; 19.7295; 18.8164; 18.6444; 18.4709; 19.0917; 19.884; 20.6862; 21.5002; 22.3281; 23.1718; 24.0336; 24.9159; 23.4273; 23.9152; 23.96; 17.7109; 24.2322; 24.4705; 23.6902; 23.9466; 24.1038; 24.6232; 25.1995; 25.9396; 26.4437; 26.8682; 27.2879; 27.7035; 28.116; 28.5262; 29.8091; 30.8944; 30.6005; 30.3052; 30.0764; 29.9055; 29.7338; 29.7777; 29.9478; 30.0202; 29.3792; 30.0611; 30.0595; 27.9711; 25.7115; 28.0826; 29.0913; 29.3933; 34.793; 32.9664; 31.1435; 29.3207; 28.2344; 28.5586; 28.8578; 28.9293; 28.6768; 28.8544; 28.9373; 28.8082; 28.6781; 27.8287; 26.7306; 25.6324; 23.0101; 25.8988; 26.3325; 26.3793; 26.9631; 27.6892; 27.9856; 27.9736; 27.5074; 26.4953; 25.8096; 25.7405; 28.2949; 28.507; 28.7173; 28.7993; 27.6441; 27; 27; 27; 27.0333; 26.9187 
26.7476; 26.6278; 26.5072; 26.3853; 26.1185; 25.7389; 25.3508; 25.1217; 24.4678; 23.8144; 22.7299; 21.4978; 20.2515; 18.5792; 17.4211; 16.6102; 16.464; 16.3119; 16.1542; 16.9256; 17.7286; 18.5375; 19.3542; 20.1805; 21.0188; 23.2582; 21.2481; 21.7339; 24.4167; 25.2349; 24.863; 24.428; 22.8942; 23.5972; 24.4737; 24.9912; 25.5325; 25.9646; 26.3899; 26.8095; 27.2241; 27.6346; 28.0417; 29.0904; 30.9533; 30.7133; 30.418; 30.1211; 29.9894; 30; 26.6442; 31.8287; 31.694; 31.8067; 31.96; 30.9783; 29.1191; 31.5631; 34.3591; 35.3798; 35.5969; 33.8979; 32.0831; 30.2702; 28.4643; 27.5636; 27.8986; 28.2131; 28.5115; 28.8082; 29; 28.9539; 28.8917; 28.1716; 27.0709; 25.6377; 24.1682; 27.0525; 25.3106; 27.3676; 27.387; 25.9324; 26.0421; 27; 26.0657; 25.5145; 26.3045; 25.5524; 25.5604; 27.7204; 28.7017; 28.9126; 26.6241; 27.6349; 27.1139; 27; 27; 26.9854; 26.8667 
26.0372; 25.6906; 25.3356; 24.9715; 24.5975; 24.2128; 24.1835; 24.381; 23.7312; 22.911; 21.6963; 20.4682; 19.2244; 17.9622; 16.3205; 15.1697; 14.4547; 14.3251; 14.1856; 14.0366; 13.8786; 14.7224; 15.5097; 16.2983; 17.0899; 22.7659; 18.7622; 21.9628; 24.3922; 26; 23.5973; 24.4129; 23.1983; 23.8466; 26.2094; 25.3508; 25.0067; 25.4906; 25.9158; 26.3343; 26.747; 27.1546; 27.558; 28.369; 30.2301; 30.8277; 30.5332; 31.6235; 32.2725; 31.5708; 31.4891; 31.7029; 30.6327; 31.4122; 31.252; 32.5064; 34.8132; 34.436; 33.8345; 32.7235; 34.6017; 32.8679; 31.194; 29.3949; 27.6581; 26.8972; 27.2324; 27.5602; 27.8663; 28.1613; 28.4538; 28.7445; 28.2353; 27.47; 26.9793; 26.4925; 26.8577; 25.1357; 25.502; 25.0864; 26.0921; 25.869; 26.5717; 27; 26.7211; 26.4241; 26.1214; 25.4927; 25.631; 26.952; 27.7588; 27.627; 26.9572; 26.8404; 26.0419; 26.6288; 26.8026; 26.7075; 26.376 
24.5012; 24.1625; 23.8124; 23.4501; 23.075; 22.6862; 22.3753; 23.6336; 22.9893; 21.8744; 20.6682; 19.4469; 18.2083; 16.9497; 15.237; 14.1174; 12.971; 12.3318; 12.2101; 12.075; 11.9266; 11.7654; 11.6306; 12.3792; 13.1218; 20.7914; 23.5298; 23.8638; 26; 24.0318; 25.2698; 25.2736; 25.2604; 26.348; 26.1419; 25.7913; 25.4476; 25.1102; 24.7783; 24.7515; 26.2712; 26.6751; 27.0738; 27.6432; 29.4986; 30.9441; 32.1612; 32.8296; 30.8364; 31.1707; 30.5161; 30.3267; 30.4966; 29.0174; 31.9293; 32.1665; 31.8181; 30.97; 29.9023; 29.3357; 31.851; 31.8412; 30.2972; 28.5158; 26.8539; 26.234; 26.5685; 26.8945; 27.2125; 27.5114; 27.8003; 27.924; 27.6219; 27.6093; 27.3075; 26.8271; 26.5759; 23.4291; 23.9626; 22.804; 23.5357; 25.0732; 25.5349; 25.9842; 26.0705; 25.5617; 24.6888; 24.2256; 28.5759; 26.9999; 26.5009; 26.34; 26.2999; 25.6101; 25.6433; 25.8064; 25.9656; 25.5906; 25.0632 
23.4436; 22.8831; 22.2827; 21.9231; 21.5478; 21.1559; 21.1522; 22.8778; 22.0192; 20.8384; 19.6433; 18.4316; 17.201; 15.9491; 14.1681; 13.0813; 11.9664; 10.8225; 10.2239; 10.1022; 9.96337; 9.8078; 9.63565; 9.44701; 9.24181; 18.5334; 21.0124; 23.9599; 24.2649; 24.3624; 24.1088; 25.7641; 25.6596; 26.7943; 26.5798; 26.2297; 25.8873; 25.552; 25.2229; 24.8994; 24.581; 24.267; 25.3002; 26.8631; 28.4507; 34.1937; 33.5878; 31.9728; 31.9949; 30.8813; 29.2338; 28.684; 24.5268; 25.8447; 26.6891; 28.5358; 28.0431; 27.033; 25.9711; 26.1835; 28.6721; 30.8632; 29.33; 27.6693; 26.0497; 25.5723; 25.9055; 26.2288; 26.5432; 26.849; 27.1531; 27.8254; 27.8685; 26.7226; 26.7553; 26.7752; 25.0293; 22.9069; 19.5567; 18.4086; 20.0456; 21.9232; 23.9903; 22.8028; 21.5631; 21.9576; 21.0998; 21.5796; 24.1833; 24.4591; 25.7144; 25.6799; 25.641; 25.1086; 25.2747; 25.4359; 25.0101; 24.5211; 24.0094 
22.4171; 21.8628; 21.2813; 20.6425; 20.0127; 19.6187; 19.934; 22.1117; 20.9658; 19.8005; 18.6192; 17.42; 16.2005; 14.9583; 13.691; 12.0592; 10.9774; 9.86586; 8.72351; 8.11416; 7.98466; 7.83456; 7.66408; 7.47327; 10.5311; 16.2732; 18.93; 22.107; 22.6034; 22.1284; 21.7318; 25.0892; 25.6505; 24.1137; 24.1137; 24.1119; 24.0855; 24.0349; 23.9603; 23.8614; 23.7383; 23.5904; 23.4171; 23.5261; 25.6389; 29.8877; 31.0717; 28.6152; 28.1032; 27.977; 26.487; 24.8919; 23.8257; 23.9537; 23.783; 23.5559; 23.3347; 23.0858; 22.0324; 23.0383; 25.4944; 25.358; 26.9259; 26.4371; 24.7797; 25.4733; 25.8584; 26.2524; 26.8419; 27.5518; 27.2161; 26.7863; 27.6086; 26.6953; 25.8106; 26.5224; 28.7992; 20.2485; 16.1733; 14.4833; 14.3168; 16.8961; 19.0867; 19.7884; 17.892; 18.3432; 17.5024; 19.6746; 20.1667; 22.7443; 24.3063; 25.0195; 24.9791; 24.7406; 24.8188; 24.3852; 23.9288; 23.4492; 22.9456 
21.3674; 20.8202; 20.2449; 19.6403; 19.0048; 18.3284; 18.2102; 19.9655; 19.726; 18.7584; 17.5938; 16.41; 15.2046; 13.9754; 12.7202; 11.049; 10.002; 8.92469; 7.81615; 6.67548; 5.98616; 5.84142; 5.67259; 5.47969; 11.0909; 12.0166; 14.2218; 16.4693; 18.9858; 21.2354; 19.6711; 23.3202; 23.8657; 22.7298; 22.7997; 22.7382; 22.7186; 22.6728; 22.6009; 22.5029; 22.3786; 22.2277; 22.0494; 21.6599; 23.1878; 24.7847; 26.3891; 25.8819; 25.3664; 24.7038; 24.2739; 20.5289; 20.1238; 21.0603; 20.5063; 18.5778; 18.2979; 18.1511; 17.8957; 20.4929; 23.8749; 23.814; 27.1861; 25.7559; 24.919; 27.5986; 26; 27.5044; 27.8275; 27.2762; 26.3378; 27.9347; 27.1709; 26.1718; 24.8336; 20.3883; 23.0079; 14.4634; 15.9735; 12.7182; 13.7408; 9.60714; 13.9177; 14.8655; 14.2362; 14.2652; 13.8888; 15.9762; 18.5292; 20.9068; 22.3685; 23.788; 24.2602; 24.1131; 23.7163; 23.2957; 22.8511; 22.382; 21.8877 
19.5352; 18.8414; 18.0704; 17.2211; 16.292; 15.1587; 13.0341; 17.0601; 18.7329; 17.445; 16.5647; 15.3993; 14.2113; 12.9986; 11.7589; 10.4898; 9.0383; 7.95706; 6.92442; 5.81965; 4.68185; 3.82392; 3.65675; 6.28018; 6.7637; 7.8358; 10.0158; 10.2788; 17.1612; 21.9243; 20.363; 19.2734; 21.6476; 21.3605; 21.4304; 21.4584; 21.3473; 21.3062; 21.2372; 21.1403; 21.0153; 20.8619; 20.6423; 20.0138; 20.4533; 22.8444; 23.372; 23.148; 22.6552; 22.2197; 21.7265; 21.4574; 19.7261; 18.2953; 18.9653; 17.0241; 16.2705; 15.5562; 15.934; 18.6435; 19.6421; 21.7511; 23.7524; 25.254; 21.8356; 24.6884; 25.3798; 24.5096; 26.554; 26.8932; 23.0599; 22.1139; 22.3204; 23.6249; 18.4171; 18.2312; 19.6953; 4.62726; 4.20407; 10.2936; 11.6323; 9.22492; 4.35233; 8.0898; 10.9744; 11.941; 11.6928; 14.4215; 16.9018; 19.0038; 20.1706; 20.6029; 22.2247; 22.0797; 21.8521; 21.5441; 21.1574; 20.6933; 20.1525 
16.4105; 15.7392; 14.9883; 14.157; 13.2439; 11.6236; 9.50058; 15.4424; 15.7122; 16.4348; 15.2621; 14.0675; 12.8518; 12.0259; 10.8055; 9.55536; 8.08436; 7.08119; 6.04662; 4.98012; 3.88101; 2.74848; 1.65032; 1.91536; 2.51407; 2.6488; 1.51521; 5.07998; 8.80655; 12.7476; 17.4463; 19.5608; 19.8913; 19.9628; 20.0722; 20.0997; 20.0852; 19.9321; 19.8661; 19.7707; 19.6456; 19.4904; 19.1431; 18.3136; 18.7716; 13.9482; 20.5671; 24.3142; 21.1373; 21.7221; 18.7997; 18; 18; 17.0481; 17.2392; 15.9218; 15.1136; 16.111; 14.8206; 14.5742; 13.4577; 15.7791; 19.7919; 19.8085; 18.1545; 21.9722; 23.532; 21.8789; 20.0951; 22.2246; 18.6201; 11.0614; 7.08209; 6.32408; 6.52959; 7.25573; 5.65336; 3.74411; 1.75356; 8.35651; 11.8596; 6.233; -3.48631; 3.84173; 7.44776; 7.83537; 7.07889; 9.36783; 11.7045; 13.6509; 14.2049; 14.3403; 17.6986; 18.7656; 18.5765; 18.3041; 17.9502; 17.5162; 17.0028 
13.2796; 12.6324; 11.9038; 11.0932; 9.72777; 8.14161; 6.03834; 7.77901; 13.8294; 14.1496; 14.3086; 13.1757; 12.0209; 10.8449; 9.64861; 8.43245; 7.37221; 6.17543; 5.18117; 4.57825; 2.89313; 0.264247; -0.794685; -0.316193; -0.254511; -2.29021; -2.52643; 2.30357; 5.71451; 9.04286; 12.2897; 15.5543; 17.1628; 18.6539; 18.7224; 18.7491; 18.734; 18.677; 18.5779; 18.3912; 18.2664; 18.1103; 17.4982; 16.6386; 17.6481; 17.6733; 17.473; 17.538; 16.7943; 18.074; 17.1201; 17.3209; 16.8748; 17.9849; 15.402; 13.0381; 11.7147; 11.9907; 14.2451; 9.6144; 11.0629; 15.5355; 12.2347; 15.6273; 17.6734; 20.2673; 21.6028; 20.3238; 20.1102; 20.3455; 13.7905; -1.87511; -2.32742; -1.05821; -0.307689; -1.01177; -2.14385; -0.917053; -3.25084; 5.91414; 4.54736; 4.92531; 2.38827; 2.05217; 2.79072; 3.98387; 2.51086; 3.74514; 4.77868; 7.64042; 7.92237; 7.9116; 12.013; 15.4475; 15.295; 15.0571; 14.7354; 14.3314; 13.846 
10.136; 9.51443; 8.81041; 7.64597; 6.23597; 4.70436; 2.63812; 0.396249; 9.16344; 12.367; 12.357; 12.2784; 11.1859; 10.0718; 8.93703; 7.78231; 6.6083; 4.74407; 4.99135; 3.96394; 1.91501; 0.101905; -1.86507; 0.336581; 0.375488; -0.66594; -1.01449; -0.65456; 2.71903; 6.33401; 9.89647; 11.4119; 10.9653; 12.4469; 14.0507; 15.4523; 16.6528; 17.3309; 17.2319; 17.0908; 16.8749; 16.7186; 15.7836; 14.7236; 15.4596; 15.8916; 16.2703; 16.0203; 13.4415; 15.3397; 12.5548; 16.4886; 19.7516; 15.3334; 15.2691; 14.5617; 10.7498; 10.0649; 4.71672; 5.10407; 6.20765; 6.50961; 4.92713; 8.4844; 10.8929; 14.1869; 21.0885; 21.5358; 19.2331; 4.18846; 6.32331; -2.77978; -2.49008; -0.985998; -0.399383; -7.00725; -4.3676; -11.6398; -3.09353; -2.17243; -1.0544; 6.17332; 2.25084; -0.04; -1.734; -0.255955; 0.381855; -0.876237; -2.67682; 1.38139; 1.6358; 3.16512; 7.04996; 12.1191; 11.9613; 11.7965; 11.5063; 11.1323; 10.6753 
6.97289; 6.37881; 5.36623; 4.12886; 2.7751; 1.27398; -0.708757; -2.81685; 0.920366; 9.42054; 11.0623; 10.3205; 10.3453; 9.29473; 8.22336; 7.13208; 6.02172; 2.2754; 2.76968; 1.99985; 1.32624; 0.58224; 0.356869; 2; 1.8643; 0.689822; 0.140672; -2.06608; 1.14616; 4.56439; 5.66899; 6.03613; 5.48063; 5.37027; 7.42681; 8.77157; 9.91774; 10.8655; 11.6146; 12.1637; 12.2217; 14.7715; 14.5997; 14.2815; 14.1183; 13.9163; 13.5889; 13.2056; 8.60726; 11.8791; 8.90654; 11.0136; 8.96804; 12.8295; 12.3629; 13.1383; 9.62874; 7.39006; 4.51009; 2.36751; 4.42105; 5.45029; 3.27601; 3.21194; 2.96253; 6.72342; 9.34046; 16.3225; 17.3815; 10.6194; 0.990963; -3.10271; -3.45744; -2.65894; -1.46663; -5.16657; -4.51362; -2.05871; -2.72353; -7.06505; -4.16892; -2.72426; -2.2213; -1.85521; -6.71211; -6.68182; -1.97208; -2.88454; -0.599443; -1.65761; -3.32891; -1.55424; 2.10835; 7.7785; 8.68888; 8.51563; 8.25621; 7.91201; 7.48403 
3.78348; 2.87777; 1.80941; 0.629435; -0.662672; -2.15725; -4.01048; -5.98225; -7.32039; 0.705088; 8.47992; 9.92364; 8.70333; 8.51206; 7.50607; 6.48036; 4.17686; 0.200735; 0.619152; -0.348315; -0.978213; -0.556658; 1.51879; 1.35029; 0.423783; 1.73877; 0.289849; 0.671907; -1.19376; -1.37886; -1.01873; -0.686031; -0.0593061; -1.42392; 0.382286; 2.08075; 3.1689; 3.67343; 4.84066; 7.74169; 10.597; 12.1005; 12.4549; 12.1026; 11.798; 11.4258; 11.1106; 10.7745; 8.93296; 10.1191; 8.49544; 1.85041; 7.41785; 9.10849; 9.06957; 10.7898; 6.70479; 4.67219; 3.60074; 0.492091; 2.3682; 0.253205; 2.9729; 2.33283; 0.355559; 1.17818; 3.07532; 6.67627; 5.37581; 6.30647; 0.853598; -0.134136; -0.225951; -3.03806; -5.61287; -3.70836; -5.61862; -1.94947; -8.63096; -11.6079; -10.2978; -9.92427; -14.033; -8.30186; -8.70064; -10.0749; -6.02349; -4.45402; -6.87258; -8.56216; -9.88347; -6.25676; -2.82247; 3.22692; 5.35103; 5.20781; 4.97826; 4.66374; 4.26526 
0.171336; -0.732075; -1.74256; -2.86015; -4.08498; -5.55353; -7.27483; -9.10746; -11.0484; -8.04885; -0.764399; 6.2697; 7.89911; 7.8285; 6.70142; 6.33426; 1.40292; -2.76641; -1.51391; -2.6595; -0.961635; -1.45765; 0.965037; 0.251815; -0.0285796; -5.25687; -13.2757; -20.2314; -27.7071; -26.8506; -18.6608; -7.77017; -5.26539; -6.56956; -11.0918; -4.7142; -1.91963; 0.845201; 3.57554; 6.2666; 8.54142; 9.45552; 10.3034; 9.92767; 9.65264; 9.31272; 8.90901; 8.44254; 8.08575; 8.71424; 8.30697; 7.56983; 5.98032; 4.88143; 9; 9; 2.41729; 3.12899; 0.22168; 1.83512; 1.90395; 1.02284; 0.199582; -1.78943; -2.24727; -0.04; -0.0442614; 0.671516; 1.17418; 0.04; 0.413235; -1.53044; -1.59631; -3.65448; -3.88323; -6.51568; -11.1246; -6.17103; -9.63871; -14.9122; -10.5446; -9.71821; -18.6015; -18.1847; -18.6118; -23.6587; -25.4447; -25.5791; -21.0786; -17.0006; -14.5761; -11.0567; -7.75309; -1.30149; 1.50837; 1.86598; 1.66534; 1.38029; 1.01185 
-3.50374; -4.34962; -5.29767; -6.34764; -7.49935; -8.92261; -10.5093; -12.1996; -13.9905; -15.8789; -10.0891; -3.55989; 2.71845; 7.8156; 4.99253; -3.0578; -6.30904; -9.20739; -5.1729; -4.45349; -4.70859; -9.06452; -9.97273; -11.8571; -17.6246; -24.7587; -30.0363; -36.4627; -35.5088; -30.1141; -23.9378; -21.0144; -23.3114; -22.2969; -19.2628; -9.73156; -2.7488; -0.202139; 2.31214; 4.78918; 5.99104; 6.83051; 7.91754; 7.75212; 7.50592; 7.19792; 6.82918; 6.40067; 6.75842; 7.1061; 6.751; 7.42836; 4.57992; 5.55076; 8.592; 9; 7.24942; 5.90374; 2.2891; 1.67916; -0.0564743; -1.53514; -1.8439; -0.967739; -3.90606; -4.20351; -5; -2.39602; -0.612721; -0.936253; -1.32685; -0.917007; -0.04; -0.592763; 0.250119; -9.30376; -6.14994; -5.62675; -4.12682; -4.00978; -11.8873; -13.5894; -18.8167; -24.8885; -22.5249; -29.7035; -31.2692; -27.1706; -23.8767; -21.1868; -18.2301; -14.0193; -10.9814; -11.4426; -3.22114; -1.51712; -1.68995; -2.1201; -2.76041 
-7.19881; -7.98309; -8.86393; -9.8408; -10.9216; -12.272; -13.721; -15.2655; -16.9026; -18.629; -19.5163; -13.5131; -7.75195; -0.413333; -4.12853; -5.40511; -5.41689; -3.02499; -9.86084; -4.52788; -10.7807; -15.3242; -21.4656; -23.2893; -28.992; -34.7226; -35.2245; -28.9478; -29.6447; -29.8498; -29.7908; -33.5811; -26.6692; -21.1378; -17.5407; -14.1232; -4.61835; -1.24568; 1.0478; 2.61759; 3.45603; 4.21972; 4.90686; 5.5713; 5.3532; 5.07685; 4.74323; 4.99318; 5.6475; 5.89224; 6.0459; 6; 7; 7.21098; 6.05519; 7; 5.19969; 4.20953; 3.63662; 1.19199; -0.547616; -2.05639; -3.48196; -2.70473; -2; -5.16627; -5.15591; -7.44816; -5.70483; -4.93103; -4.18597; -3.74344; -2.65438; -2.09993; -2.60306; -4.86297; -4.21534; -4.28525; -5.24379; -7.36776; -13.6956; -15.627; -22.4512; -22.7542; -27.9357; -32.6541; -38.0842; -29.5784; -23.7711; -21.7995; -20.9791; -16.6355; -12.4889; -18.8912; -15.8745; -8.68176; -5.43143; -5.92229; -6.51166 
-10.9225; -11.6409; -12.4495; -13.3474; -14.3912; -15.6091; -16.9169; -18.3119; -19.7909; -21.3508; -22.9882; -23.6144; -16.5079; -16.2798; -19.1715; -16.3375; -13.8768; -17.4931; -18.0205; -18.21; -16.3077; -17.4184; -22.915; -28.0663; -32.572; -33.6783; -29.8168; -26.0269; -24.4774; -24.9243; -27.3715; -27.4898; -22.8228; -18.442; -14.144; -9.27795; -4.77492; -1.28974; -0.645215; 0.176051; 0.930889; 1.61748; 2.23411; 3.47227; 3.18983; 2.94489; 3.35042; 3.98514; 4.5078; 4.86012; 5.44599; 5.45084; 5.2046; 4.04; 5.50268; 7; 2.24502; 1.03032; 1.06539; -0.818054; -4.01666; -6.07263; -7.10417; -7.31226; -6.80317; -7.31839; -4.75963; -5.78108; -10.6939; -10.0634; -8.32299; -11.8077; -9.08684; -9.34245; -9.50117; -11.037; -16.4212; -16.2764; -12.8809; -13.9042; -13.0472; -14.4468; -20.0765; -28.7503; -37.3586; -39.7055; -39.8626; -38.5211; -34.0394; -28.291; -35.6891; -29.8018; -24.2081; -25.7968; -20.242; -16.0649; -14.486; -10.6778; -10.2949 
-16.4909; -15.3316; -16.0626; -16.8755; -17.859; -18.941; -20.104; -21.345; -22.6613; -23.4874; -23.1113; -22.5935; -25.6321; -22.3975; -19.9645; -17.9399; -20.7768; -23.7537; -26.7037; -26.6218; -25.4133; -26.1748; -28.7056; -31.4421; -33.3668; -31.7755; -30.5579; -29.1082; -28.0098; -26.7239; -26.872; -25.5544; -21.3686; -17.1014; -12.7656; -8.37366; -6.5136; -3.96316; -2.48948; -1.5138; -1.08643; -0.690587; -0.327415; 0.0437936; 1.2207; 1.87364; 2.63037; 2.78356; 3.79424; 4.49559; 4.34716; 4.17762; 4.04; 4.30307; 1.47662; 7; 0.573608; 1.11196; -0.0261652; -3.26292; -5.1266; -8.0786; -10.2345; -9.81954; -8.02296; -10.2993; -11.9088; -15.2132; -10.3714; -11.6316; -12.5211; -10.7328; -9.92206; -10.8588; -14.5869; -22.5052; -23.1312; -21.0833; -25.5596; -26.9671; -27.6123; -30.2596; -33.6079; -39; -39; -38.8494; -43.1433; -42.1453; -43.7191; -30.2847; -40.3215; -39.4589; -39.1989; -40.2595; -33.8619; -26.2422; -18.8018; -18.4109; -18.3084 
-24.7458; -25.1982; -22.0948; -21.3495; -22.092; -22.9679; -23.9744; -24.9902; -26.0798; -27.4019; -28.9526; -30.7277; -29.5596; -28.4642; -27.5935; -26.5273; -27.9636; -29.6434; -31.8102; -33.3586; -34.5233; -34.9323; -36.3381; -35.0851; -32.658; -30.2597; -30.2971; -30.6941; -29.8448; -29.851; -26.7029; -27.5366; -23.6219; -19.1702; -14.5642; -16.603; -19.4534; -11.5583; -7.22976; -7.14213; -7.23437; -6.72917; -4.64057; -3.03279; -2.65816; -3.75222; -2.36435; -1.12224; -0.0294426; 0.910831; 1.69571; 2.2854; 2.66875; 3.0807; -3.18091; -4.28558; -7.89498; -4.63142; -5.7764; -6.7073; -7.38838; -8.44789; -8.24109; -11.1904; -15.8394; -15.2381; -16.6366; -13.2923; -13.3745; -13.5755; -12.0351; -8.48537; -13.8629; -20.8646; -22.8093; -23.148; -24.0196; -24.642; -25.5016; -26.5956; -30.0299; -35.622; -39.608; -39.5648; -36.3286; -30.8251; -39.3226; -39.6106; -35.2875; -32.8604; -33.8618; -31.0795; -29.4182; -36.2165; -40.9413; -34.6864; -31.6321; -27.8422; -24.3782 
-26.1319; -26.1587; -26.5922; -26.9873; -27.3427; -27.6572; -27.9298; -27.8406; -27.6546; -27.8606; -28.5836; -28.6349; -28.6406; -28.8049; -29.3502; -29.8234; -30.6777; -31.7256; -32.4585; -32.5498; -34.4385; -34.8375; -32.6856; -32.6978; -32.1308; -31.1772; -31.0633; -31.3735; -30.7872; -28.1652; -25.6395; -23.3686; -20.6745; -18.0205; -16.4751; -19.3858; -22.7635; -25.4116; -26.8227; -27.9964; -26.8709; -23.3403; -20.1511; -16.6107; -12.7456; -11.4825; -10.4567; -9.67111; -9.12842; -8.83044; -7.82338; -6.6276; -5.7564; -3.75345; -1.88378; -1.78086; -5.00548; -5.53038; -6.51212; -6.39419; -6.50612; -8.13199; -9.81163; -10.0353; -10.0685; -10.3778; -13.2283; -16.8037; -20.7867; -26.2259; -27.5711; -26.8708; -21.8899; -23.0442; -27.3846; -31.9243; -31.4836; -30.121; -28.2592; -33.5556; -35.5191; -38.6168; -41.9265; -43; -39.9085; -35.4382; -32.2296; -28.6387; -28.2455; -28.1536; -28.9188; -28.7915; -30.5382; -32.7506; -30.6256; -28.3382; -27.1413; -26.8059; -26.469 
-26.5519; -26.3625; -26.1807; -26.0069; -25.8418; -25.6859; -25.6678; -25.8525; -26.0018; -26.115; -26.1918; -26.2318; -26.2348; -26.2007; -26.1296; -26.0216; -26.1721; -28.9146; -28.2934; -29.4372; -30.7373; -32.0341; -33.1185; -34.3703; -33.2161; -31.687; -29.9867; -28.121; -26.0969; -24.3253; -24.2494; -22.9974; -22.0684; -23.7577; -23.401; -23.0773; -24.2273; -25.698; -26.96; -27.9911; -27.1593; -29.4524; -27.8353; -25.6334; -23.1157; -20.9117; -19.188; -17.3895; -15.6063; -13.8449; -12.1119; -10.4134; -8.75571; -7.14472; -5.58629; -6.33004; -8.13125; -9.37934; -9.72164; -10.1139; -10.5546; -11.0421; -11.6588; -12.5132; -13.5538; -14.226; -14.7883; -18.1115; -21.4514; -23.1056; -22.7003; -22.9287; -21.4223; -21.2769; -21.9067; -25.4305; -24.0634; -25.3327; -27.2507; -30.1478; -32.6883; -32.0566; -32.1177; -32.1283; -32.0271; -31.8143; -30.6526; -28.3871; -27.5049; -29.6563; -28.8884; -28.3272; -28.0755; -27.8183; -27.5859; -27.3699; -27.1577; -26.9501; -26.7479 
-26.981; -26.8378; -26.7002; -26.5687; -26.4439; -26.326; -26.2157; -26.1133; -26.0191; -25.9335; -25.8569; -25.7895; -25.7316; -25.6835; -26.0268; -26.733; -27.499; -28.3218; -29.1982; -30.125; -31.0985; -32.1332; -33.3924; -34.6597; -35.9303; -37.1994; -34.6378; -31.9198; -31.007; -30.7985; -29.137; -27.5595; -26.7341; -26.3044; -25.9328; -25.6205; -25.3688; -25.1787; -25.0507; -24.9855; -24.9834; -25.0443; -25.1681; -25.3544; -25.9117; -25.6207; -23.3874; -21.2595; -19.2449; -17.3513; -15.586; -13.9751; -12.5511; -12.3621; -13.7719; -12.8146; -12.0603; -13.0108; -13.3892; -13.819; -14.312; -14.9522; -15.6433; -16.3827; -17.1678; -17.9671; -18.3894; -18.854; -18.4563; -17.833; -17.3666; -17.8072; -21.0854; -20.0768; -21.1057; -21.6614; -21.9762; -22.2487; -24.5185; -24.1552; -24.1031; -24.2556; -24.8653; -25.69; -26.5393; -28.5901; -28.2983; -29.2012; -29.8196; -29.9501; -29.0357; -28.2626; -28.0947; -27.9277; -27.7624; -27.5993; -27.439; -27.2821; -27.1293 
-29.4691; -29.2754; -29.1306; -29.0353; -28.9898; -28.9944; -29.0489; -29.1533; -29.3071; -29.5098; -29.7606; -30.0585; -30.4025; -30.7911; -31.223; -31.6965; -32.2097; -32.7607; -33.3473; -33.9673; -34.6181; -35.2974; -35.9623; -35.2698; -36.7017; -36.5363; -35.6491; -35.854; -35.9227; -35.6817; -35.424; -35.1442; -34.1494; -33.2188; -32.3561; -31.5648; -30.8479; -30.4685; -30.3831; -30.3401; -30.3395; -30.3815; -30.7889; -31.6616; -31.1958; -29.8589; -28.4548; -26.9891; -25.4675; -23.8959; -22.2806; -20.6278; -18.944; -18.184; -18.1187; -18.1753; -18.3537; -18.6531; -19.0722; -19.6094; -20.2625; -21.0291; -21.906; -22.4781; -22.4277; -22.416; -22.4429; -22.5083; -22.612; -22.7534; -22.9322; -23.1474; -23.3846; -23.576; -23.798; -24.0497; -24.383; -24.7907; -25.2268; -25.6896; -26.1772; -26.6876; -27.219; -27.769; -28.3356; -28.9165; -29.5094; -30.0618; -30.4098; -30.7626; -31.1188; -31.4769; -31.8355; -31.6028; -31.1379; -30.7148; -30.335; -29.9999; -29.7109 
-32.909; -33.0646; -33.2143; -33.3574; -33.4933; -33.6216; -33.7416; -33.8529; -33.9551; -34.0477; -34.1303; -34.2026; -34.2644; -34.3153; -34.3551; -34.3837; -34.401; -34.4069; -34.4014; -34.3844; -34.3561; -34.3165; -34.2659; -34.2044; -34.1323; -34.0498; -33.9573; -33.8552; -33.7439; -33.6238; -33.4955; -33.3594; -33.216; -33.0661; -32.9102; -32.7488; -32.5828; -32.4127; -32.2392; -32.0631; -31.885; -31.7057; -31.4519; -31.1436; -30.8385; -30.5379; -30.2429; -29.9548; -29.7004; -29.457; -29.2211; -28.9935; -28.7752; -28.5774; -28.3744; -28.1866; -28.0148; -27.8595; -27.7062; -27.5748; -27.4583; -27.3572; -27.2718; -27.2026; -27.1497; -27.1134; -27.0938; -27.0797; -27.1254; -27.1905; -27.2746; -27.3774; -27.4984; -27.6373; -27.7934; -27.966; -28.1545; -28.3582; -28.5762; -28.8076; -29.0515; -29.3069; -29.5728; -29.8482; -30.1319; -30.4228; -30.649; -30.8201; -30.9943; -31.1708; -31.349; -31.5281; -31.7075; -31.8863; -32.0639; -32.2396; -32.4126; -32.5823; -32.748 
