-19.6452; -19.3453; -19.0771; -18.8415; -18.6395; -18.4718; -18.3393; -18.2423; -18.1813; -18.1565; -18.168; -18.2158; -18.2997; -18.4193; -18.5743; -18.7639; -18.9874; -18.9831; -18.6273; -18.297; -17.9936; -17.7183; -17.4722; -17.2563; -17.0713; -16.9182; -16.7974; -16.7095; -16.6548; -16.6335; -16.6458; -16.6915; -16.7705; -16.8826; -17.0272; -17.2037; -17.4116; -17.65; -17.9179; -18.2142; -18.5379; -18.8876; -19.2619; -19.6594; -20.0784; -20.5173; -20.9743; -21.4477; -21.9355; -22.4357; -22.9464; -23.4655; -23.9909; -24.5205; -25.0521; -25.5837; -26.1131; -26.6381; -27.1566; -27.6665; -28.1657; -28.6523; -29.1242; -29.5795; -30.0164; -30.433; -30.8278; -31.199; -31.5452; -31.8649; -32.1569; -32.42; -32.653; -32.7856; -32.3188; -31.8315; -31.3257; -30.8035; -30.267; -29.7184; -29.1598; -28.5936; -28.022; -27.4473; -26.8718; -26.2979; -25.7278; -25.1639; -24.6084; -24.0635; -23.5313; -23.0142; -22.514; -22.0327; -21.5724; -21.1348; -20.7217; -20.3348; -19.9754
-12.0728; -11.4752; -12.5209; -12.2834; -13.0632; -13.5328; -13.5549; -13.5953; -13.654; -13.7307; -13.8252; -13.9374; -14.0668; -14.2131; -14.3758; -14.5544; -14.3126; -13.9386; -13.595; -13.2831; -13.0039; -12.7585; -12.5478; -12.3726; -12.1001; -11.6989; -11.3237; -10.976; -10.657; -10.368; -10.1099; -9.88376; -9.69037; -9.53042; -9.4045; -9.40811; -9.82143; -10.2956; -13.1712; -12.5811; -12.0637; -12.7607; -13.507; -14.2998; -16.864; -16.0122; -16.9249; -17.7032; -18.4546; -19.2523; -20.0933; -20.9744; -21.8924; -22.8436; -24.1755; -24.8314; -25.8603; -26.9074; -27.9687; -26.9601; -30.117; -31.1958; -31.7279; -30.6585; -34.3999; -35.443; -35.5334; -37.4251; -38.1212; -38.7641; -39.3513; -39.8802; -39.2487; -38.3556; -37.4179; -36.4395; -35.4243; -34.3766; -33.3006; -32.2006; -32.9188; -29.9469; -28.8022; -27.6518; -26.5003; -25.3523; -24.2124; -24.9148; -21.9751; -20.8867; -20.1759; -18.7916; -17.7934; -16.8332; -15.915; -15.0424; -14.2187; -13.4472; -12.731 
-11.4573; -11.3541; -11.2765; -11.2251; -11.1999; -11.2014; -11.2295; -11.2845; -11.3662; -11.4745; -12.3907; -12.2298; -12.0431; -12.1689; -11.7871; -11.1554; -10.5637; -10.0141; -9.50831; -9.04796; -8.63463; -8.26975; -7.95464; -7.6905; -7.4784; -7.31929; -7.21399; -7.16316; -6.90868; -6.48058; -6.09873; -5.76444; -5.47888; -5.24301; -5.05763; -4.92335; -4.84059; -4.80962; -4.83049; -4.90309; -5.55928; -6.44067; -8.93082; -8.21287; -8.59179; -9.48012; -10.4488; -12.5058; -12.6125; -13.7996; -16.949; -16.3622; -17.7284; -19.1445; -20.6053; -22.1054; -23.1736; -24.3425; -24.2684; -25.0044; -25.8628; -26.8407; -28.0653; -29.1412; -30.4558; -32.1259; -33.391; -35.0014; -36.4018; -36.3888; -36.1625; -36.276; -36.9252; -37.7827; -38.8579; -39.6746; -39.3383; -41.8153; -30.8786; -31.9713; -39.0003; -39.3757; -37.6371; -35.7904; -33.8424; -31.8005; -29.6724; -27.466; -25.1896; -22.8518; -20.4614; -18.0275; -16.4405; -13.0667; -10.5587; -8.92571; -8.19753; -9.11364; -10.4125 
-9.24686; -9.10768; -9.00162; -8.92924; -8.89099; -8.88722; -8.91823; -8.98417; -9.08511; -9.22101; -9.39173; -9.597; -9.83643; -9.33511; -8.46173; -7.63768; -6.86534; -6.14698; -5.48475; -4.88066; -4.33661; -3.85439; -3.43564; -3.0819; -2.79459; -2.57497; -2.42422; -2.34332; -2.33317; -2.39446; -2.07872; -1.63922; -1.26418; -0.95482; -0.712102; -0.53677; -0.738635; -1.44711; -2.2082; -3.07542; -3.1097; -3.07955; -4.93285; -4.92748; -4.90439; -4.70521; -4.09478; -5.28977; -6.77034; -8.34162; -9.99803; -12.4994; -12.7165; -12.7617; -12.6351; -12.3372; -12.131; -12.7679; -13.5713; -17.4613; -16.3331; -16.9523; -18.3907; -19.9773; -19.9632; -18.8761; -18.0647; -17.531; -17.2763; -17.3011; -17.6049; -21.8136; -20.9565; -20.1732; -21.5719; -24.7652; -25.1565; -28.037; -29.7859; -31.742; -33.8978; -36.2454; -38.7763; -41.481; -25.7906; -26.4718; -27.6924; -26.7661; -25.5423; -23.6774; -20.5643; -17.1408; -14.0216; -11.651; -13.535; -10.0347; -8.41086; -9.62204; -9.41855 
-7.05746; -6.88128; -6.74523; -6.65004; -6.59634; -6.58467; -6.61546; -6.68903; -6.80557; -6.96517; -7.16778; -7.4132; -7.35562; -6.23024; -5.16197; -4.15361; -3.20782; -2.32713; -1.51394; -0.770529; -0.0990627; 0.498409; 1.01995; 1.46373; 1.82803; 2.11124; 2.31188; 2.42857; 2.46009; 2.40532; 2.26333; 2.50079; 2.96281; 2.91361; 2.11216; 1.28319; 0.410669; -0.640525; -1.70438; -2.0064; -1.94844; -1.91216; -1.89762; -1.90481; -1.93369; -1.98415; -2.056; -2.17051; -2.53441; -2.65202; -2.51296; -2.24104; -1.99008; -1.76085; -1.55406; -1.37033; -1.2102; -6.10941; -5.11824; -4.07467; -5.46569; -7.05057; -5.90598; -3.91173; -2.24923; -0.922742; -0.509977; -0.534342; -0.589768; -7.32395; -7.20712; -7.06012; -6.80561; -5.40934; -4.31721; -9.63134; -8.73871; -12.5799; -17.5954; -21.1483; -26.4635; -24.459; -25.7845; -25.2873; -25.1093; -25.2512; -25.7124; -25.14; -24.6713; -22.6382; -17.5541; -12.8306; -8.48334; -7.86475; -7.59576; -7.38072; -7.16053; -7.02829; -6.99919 
-4.08044; -4.01248; -4.16477; -4.38188; -4.31044; -4.28821; -4.31583; -4.39379; -4.52245; -4.70206; -4.9327; -5.21432; -4.45708; -3.13492; -1.87974; -0.694502; 0.417971; 1.45499; 2.414; 3.29254; 4.08827; 4.79892; 5.42235; 5.95646; 6.39928; 6.74889; 7.00347; 7.16129; 7.08737; 6.89711; 6.65936; 6.34412; 5.46877; 4.55135; 3.59869; 2.54352; 1.31202; -0.0619113; -0.948033; -0.8552; -0.787776; -0.745874; -0.71601; -0.433066; -0.202639; -0.0256409; 0.097118; -0.164935; -0.22989; -0.214921; -0.146379; -0.0249184; -0.276437; -0.602529; -0.357792; -0.140556; 0.0485809; 0.209107; 0.3406; 0.442723; 0.515223; 0.515918; 0.905287; 1.02247; 1.10298; 1.1467; 1.15358; 1.12369; 1.05719; -0.95433; -0.815448; -0.640977; -0.431445; -0.187466; -0.0902511; -0.400904; -0.743598; -1.11734; -6.47895; -5.11946; -9.11681; -9.59634; -8.63978; -8.05658; -7.84803; -8.0146; -8.55589; -9.47069; -10.2311; -6.92496; -6.36171; -5.85609; -5.40977; -5.02428; -4.701; -4.3628; -4.09117; -4.08685; -4.11367 
-0.868457; -0.977423; -1.15161; -1.3907; -2.02782; -1.99243; -2.01397; -2.09317; -2.23059; -2.42667; -2.68167; -3.13734; -1.55295; -0.0418323; 1.39283; 2.74802; 4.02085; 5.20858; 6.30856; 7.31825; 8.2352; 9.05701; 9.47634; 9.58086; 9.63572; 9.64031; 9.59399; 9.49613; 9.34609; 9.14325; 8.88699; 7.97318; 5.37158; 3.16545; 4.85595; 3.63208; 2.20662; 0.760277; 0.193136; 0.356821; 0.857962; 1.30324; 1.69131; 2.02093; 2.29094; 2.50029; 2.64803; 2.73329; 2.82203; 2.79473; 2.70732; 2.56064; 2.35553; 2.09292; 1.77373; 1.16972; 1.3157; 1.49995; 1.65069; 1.76755; 1.85027; 1.67651; 1.63956; 2.18718; 2.71878; 2.81461; 2.82113; 2.78547; 2.70784; 2.58852; 2.42789; 2.22645; 1.98475; 1.70348; 1.38338; 1.02534; 0.630317; 0.374666; -0.231845; -0.0268918; -0.240301; -1.79481; -1.34169; -1.5548; -1.86835; -2.28006; -2.7889; -4.60635; -4.09293; -4.03419; -3.73513; -3.14859; -2.6299; -2.1808; -1.80287; -1.36118; -1.04365; -0.847676; -0.825075 
2.13736; 2.01251; 1.81748; 1.55256; 1.21797; 0.813856; -0.295489; -0.218128; -0.0752183; -0.133891; -0.409683; -0.411715; 1.3635; 3.05628; 4.6635; 6.18215; 7.60941; 8.94253; 10.1789; 10.9854; 11.2665; 11.4957; 11.6725; 11.7963; 11.8662; 11.8817; 11.8418; 11.7459; 11.593; 11.3822; 11.1127; 9.69329; 6.68874; 5.14673; 4.58236; 3.88583; 3.15535; 1.8506; 1.95564; 2.58353; 3.15075; 3.65578; 4.09715; 4.47351; 4.78358; 5.02615; 5.20012; 5.37711; 5.40209; 5.36002; 5.25189; 5.07869; 4.84145; 4.5412; 3.82102; 3.75584; 3.27284; 2.80115; 2.97054; 3.10164; 3.19418; 2.97325; 2.58022; 2.88283; 3.47976; 4.05793; 4.49623; 4.45454; 4.36569; 3.77; 3.9521; 3.81991; 3.54664; 3.2288; 3.11425; 3.1642; 3.14687; 3.06196; 2.90919; 2.6883; 2.39901; 0.717543; 1.21455; 1.64817; 2.01824; 1.69338; 1.12118; -0.441991; -0.342779; -0.64063; -0.349587; -0.147533; 0.158948; 0.671779; 1.18391; 1.62497; 1.98871; 2.17497; 2.19166 
5.10477; 4.96428; 4.74949; 3.53937; 3.9022; 3.66103; 3.15024; 2.54551; 2.40033; 2.18154; 1.88841; 2.34011; 4.29909; 6.16672; 7.93997; 9.616; 11.1921; 12.2936; 12.7136; 13.0795; 13.3907; 13.6467; 13.8469; 13.9905; 14.0769; 14.1052; 14.0744; 13.9836; 13.8317; 13.6175; 13.3251; 11.3627; 10.8627; 11.3498; 11.5271; 7.52607; 6.26736; 5.77601; 5.95506; 6.02852; 5.99717; 6.01229; 6.50675; 6.93; 7.28064; 7.55733; 7.75882; 7.96191; 7.97536; 7.91615; 7.78548; 7.58452; 7.31444; 6.9764; 6.57153; 6.10094; 5.56576; 4.96707; 4.30303; 4.44793; 4.54994; 4.26066; 3.82367; 3.57438; 4.23464; 4.87481; 5.49363; 6.08981; 6.03432; 5.88232; 5.67897; 5.42481; 5.4473; 5.6488; 5.77856; 5.83628; 5.82162; 5.73422; 5.57368; 5.3396; 5.03155; 3.21497; 3.75179; 4.22061; 4.62143; 4.95418; 5.04267; 3.7086; 3.424; 2.74797; 3.05877; 3.27295; 3.3909; 3.53966; 4.10795; 4.60212; 5.01247; 5.16131; 5.1706 
7.95966; 7.88453; 7.65108; 7.34012; 6.95165; 6.48552; 5.94145; 4.8945; 4.75023; 4.52507; 4.21803; 5.12469; 7.26081; 9.29685; 11.23; 13.0577; 13.7929; 14.3047; 14.7597; 15.1576; 15.4979; 15.7802; 15.9638; 16.1681; 15.7279; 15.6849; 15.7042; 15.7868; 15.9341; 15.8526; 15.2977; 18.2285; 19.0228; 15.734; 12.9891; 10.8024; 9.69034; 9.77686; 9.95614; 10.0241; 9.98173; 9.82975; 9.56878; 9.39572; 9.78751; 10.0993; 10.3296; 10.548; 10.5471; 10.4684; 10.3134; 10.0835; 9.77982; 9.40378; 8.95656; 7.56067; 7.85324; 7.19937; 6.47878; 5.80946; 5.98501; 5.54156; 5.06139; 4.54555; 4.98505; 5.68556; 6.36358; 7.01784; 7.64699; 7.54912; 7.4051; 7.77534; 7.93016; 7.7116; 7.56923; 7.50336; 7.51439; 7.60276; 7.76898; 7.98639; 7.66275; 5.92089; 6.27547; 6.77626; 7.2052; 7.56235; 7.84768; 7.93895; 7.21564; 6.14356; 6.46634; 6.69025; 6.81109; 7.56305; 7.58479; 7.80997; 7.95588; 7.88243; 7.88182 
10.9124; 10.7796; 10.5286; 10.1974; 9.78581; 9.29352; 8.72001; 7.93539; 7.13067; 6.90243; 6.58483; 7.94887; 10.2558; 12.4542; 14.4873; 15.1534; 15.7602; 16.3076; 16.7957; 17.2241; 17.5925; 17.9006; 18.1477; 18.3997; 18.3958; 18.3502; 18.2618; 18.0099; 17.9517; 17.842; 17.1485; 24.899; 21.4801; 18.0007; 15.427; 14.0098; 13.466; 13.7598; 13.9363; 13.9966; 13.942; 13.7733; 13.491; 13.0957; 12.5876; 12.6575; 12.918; 13.1405; 13.1224; 13.0221; 12.841; 12.5808; 11.7572; 11.8285; 11.3392; 10.776; 10.1402; 9.43273; 8.65468; 7.807; 7.30283; 6.81873; 6.29609; 5.73595; 5.73256; 6.49191; 7.22781; 7.93902; 8.55324; 9.14692; 9.86518; 10.3721; 10.6869; 10.9218; 11.0767; 11.1511; 11.1446; 11.0567; 10.8868; 10.6342; 10.298; 9.74348; 8.79094; 9.32065; 9.77522; 10.1549; 10.4597; 10.6896; 10.8443; 9.88134; 9.88047; 10.1118; 11.7772; 11.609; 11.8884; 11.009; 10.3496; 10.7279; 10.8537 
13.371; 13.3515; 13.2659; 13.115; 12.6064; 11.909; 11.4918; 10.8077; 10.0377; 9.31964; 8.99486; 10.8198; 13.2917; 15.6127; 16.3792; 17.0835; 17.7259; 18.3066; 18.8258; 19.2931; 19.4643; 19.5955; 19.686; 19.484; 19.6366; 19.7406; 19.7953; 19.7997; 19.7529; 19.6535; 16.4742; 18.0715; 23.4695; 19.8805; 18.7131; 17.2088; 17.441; 17.7332; 17.9039; 17.9546; 17.8865; 17.7007; 17.3978; 16.9782; 15.5581; 15.789; 15.5297; 15.7446; 15.7067; 15.5824; 15.3735; 15.0818; 14.7373; 14.3544; 13.8857; 13.3308; 12.6893; 11.9606; 11.1436; 10.2118; 9.74319; 9.2454; 8.63585; 7.91518; 7.22446; 7.19786; 7.43642; 8.07571; 8.70922; 9.33615; 10.0143; 10.7744; 11.5298; 12.2802; 13.0252; 13.8053; 13.8043; 13.7184; 13.5467; 13.2886; 12.9428; 12.5815; 11.3035; 11.8592; 12.3371; 12.7374; 13.0604; 13.3061; 13.4744; 13.5648; 13.3086; 16.7157; 15.9737; 13.9612; 13.4511; 13.2501; 12.9792; 13.2351; 13.3235 
15.8118; 15.7789; 15.6797; 15.5147; 15.2845; 14.9893; 14.2627; 13.5541; 12.7568; 11.7831; 11.4545; 13.7452; 16.3763; 17.4752; 18.2793; 19.0187; 19.7676; 20.0756; 20.3439; 20.5721; 20.4143; 20.7267; 20.9911; 21.2075; 21.3753; 21.4942; 21.5472; 21.4623; 21.3593; 21.2375; 18.0436; 19.688; 23.5026; 23.4787; 21.9926; 21.1932; 21.4182; 21.7052; 21.8673; 21.9063; 21.8237; 21.6204; 21.2973; 20.8547; 19.7075; 19.6106; 18.8083; 18.3656; 18.3517; 18.3022; 18.1639; 17.9374; 17.6231; 17.2211; 16.7311; 15.8473; 15.4854; 14.7281; 14.4247; 13.9124; 13.2936; 12.7599; 11.9314; 11.0609; 10.3655; 10.3595; 10.2196; 9.98458; 9.65543; 9.53797; 10.1993; 10.9667; 11.766; 12.5606; 13.3502; 14.1346; 14.9133; 15.6858; 16.2164; 15.9551; 15.6027; 15.1579; 13.8183; 14.3973; 14.8962; 15.3155; 15.6556; 15.9165; 15.8702; 14.3849; 17.1927; 16.8656; 16.8834; 16.8083; 15.5932; 15.7428; 15.2391; 15.7304; 15.7772 
17.1326; 17.3662; 17.5741; 17.7567; 17.6557; 17.3467; 16.9726; 15.6906; 15.4897; 14.2997; 13.8165; 16.7331; 18.4472; 19.3532; 20.2191; 20.6271; 20.9946; 21.3218; 21.2819; 21.7068; 22.0832; 22.3342; 22.3357; 22.3208; 22.2895; 22.2412; 22.1758; 22.0928; 21.9916; 21.8716; 19.9576; 19.6319; 21.7768; 21.0655; 25.2727; 24.998; 25.4057; 25.6838; 25.3607; 24.6005; 23.8092; 23.7364; 23.2282; 21.9678; 21.4253; 20.8577; 19.7358; 19.7905; 19.9318; 20.574; 21.5485; 21.8339; 19.5594; 19.9114; 19.5793; 18.9801; 18.2516; 18.5063; 19.0677; 17.3083; 16.859; 15.8705; 15.1135; 14.3251; 13.5996; 13.5207; 13.3603; 13.1035; 12.7511; 11.6964; 11.7613; 11.3355; 12.6815; 13.9401; 15.1331; 16.2611; 16.0726; 16.135; 16.947; 17.7529; 18.2833; 17.8313; 16.3407; 16.9403; 17.3847; 17.6264; 17.1971; 16.7328; 13.1112; 17.9058; 18.0455; 19.7716; 19.221; 18.6227; 17.9765; 17.4507; 17.0263; 17.8869; 16.6683 
18.9141; 19.1979; 19.3861; 19.3672; 19.2889; 19.1518; 19.1388; 18.8579; 18.3403; 17.3091; 16.7189; 19.3019; 20.433; 20.944; 21.4134; 21.8414; 21.8911; 22.4301; 22.846; 22.897; 22.932; 22.951; 22.9541; 22.941; 22.9116; 22.8657; 22.8027; 22.7223; 22.6239; 22.5068; 21.7471; 22.3769; 22.67; 30.3136; 30.0773; 27.6645; 27.1125; 26.8573; 26.5466; 26.1809; 24.5764; 23.9127; 23.5763; 23.0426; 22.4856; 21.9043; 21.2976; 20.7799; 20.9171; 21.0296; 21.1893; 22.062; 22.9378; 23.83; 25.2655; 23.8416; 22.772; 23.7966; 21.6322; 20.9287; 19.8394; 19.2015; 18.236; 17.5597; 16.8063; 16.6879; 15.4937; 15.7727; 15.8519; 15.3804; 14.8291; 14.3092; 14.0415; 15.3964; 16.7072; 17.9757; 19.2116; 20.2561; 21.2355; 22.1498; 22.9991; 23.4589; 18.3013; 18.9275; 18.9512; 18.7616; 17.5098; 18.5516; 21.677; 22.9711; 21.8998; 18.2781; 20.4481; 19.7778; 19.6511; 19.2551; 18.8247; 18.4814; 19.7403 
20.6583; 20.8287; 21.1634; 21.4651; 21.3752; 21.2273; 21.0215; 20.758; 20.4365; 19.9376; 19.7075; 21.0232; 21.5979; 22.1296; 22.6188; 22.9032; 23.3072; 23.3905; 23.4579; 23.5094; 23.5453; 23.5656; 23.5702; 23.5592; 23.5322; 23.4889; 23.429; 23.352; 23.2573; 23.1441; 24.2512; 27.6904; 30.3871; 31.54; 30.0733; 28.9839; 28.7687; 27.9807; 26.6351; 26.1696; 25.6846; 25.1795; 24.6538; 23.8933; 23.5372; 22.9443; 22.3268; 21.7653; 21.8973; 22.0053; 22.09; 22.1519; 22.791; 23.7036; 24.6204; 31.8069; 29.8459; 27.262; 24.9829; 23.839; 23.2595; 22.2732; 21.4765; 20.7718; 19.9926; 19.8679; 19.6641; 19.3626; 18.9644; 18.4469; 17.969; 17.4258; 16.817; 16.7871; 18.1322; 19.4354; 20.6986; 21.9235; 23.1116; 24.1805; 25.0707; 24.9462; 27.9627; 26.9906; 22.2519; 20.4792; 23.6635; 26.6037; 27; 26.19; 23.584; 18.1763; 20.2507; 21.6591; 21.7746; 21.5939; 21.2846; 21.1463; 20.9375 
22.9934; 23.245; 23.1352; 23.1045; 23.3834; 23.3062; 23.0905; 22.818; 22.4884; 22.1004; 21.8716; 22.1847; 22.7795; 23.3304; 23.7053; 23.8204; 23.919; 23.9618; 24.069; 24.1208; 24.1575; 24.179; 24.1854; 24.1766; 24.1523; 23.8878; 23.9441; 23.983; 23.8928; 23.7846; 27.857; 26.6084; 30.0134; 32.4914; 31; 30.1981; 28.6777; 28.2291; 27.7635; 27.2805; 26.7795; 26.26; 25.7213; 25.1624; 24.5823; 23.9799; 23.354; 22.703; 22.8746; 22.9773; 23.0576; 23.1158; 23.1526; 23.5882; 25.4777; 35.2442; 35.8097; 31.4699; 25.9315; 27.4739; 26.3616; 25.3608; 24.7002; 23.9686; 23.1654; 23.091; 22.8406; 22.6142; 22.1761; 21.5871; 21.0834; 19.4819; 19.8908; 19.2009; 19.5628; 20.8967; 22.1914; 23.449; 24.6711; 25.8592; 27.0147; 27.7848; 28.8038; 28.8529; 26.3775; 24.2133; 27.4975; 27.8752; 28.6728; 26.1099; 21.496; 21.6469; 22.4709; 23.6234; 23.7588; 23.6909; 23.2364; 23.0479; 22.6448 
25.6895; 25.9936; 25.9563; 25.7728; 25.5286; 25.2911; 25.1677; 24.9058; 24.605; 24.4764; 24.2881; 24.3002; 24.373; 24.1953; 23.8577; 23.5568; 23.5308; 24.3134; 24.6806; 24.7326; 24.7699; 24.7927; 24.8009; 24.7945; 24.7732; 24.7367; 24.6846; 24.6165; 24.5316; 24.3015; 27.3824; 24.422; 30.6729; 31.96; 30.045; 30.1709; 29.8313; 29.3626; 28.8788; 28.3794; 27.8638; 27.3313; 26.781; 26.212; 25.6232; 25.0133; 24.381; 23.7248; 23.851; 23.9477; 24.023; 24.0772; 24.1108; 24.1241; 29.114; 34.0748; 30.689; 28.5216; 33.3569; 30.2379; 29.2987; 27.3962; 27.914; 27.1568; 26.3316; 26.0049; 26.0836; 25.7052; 25.1791; 24.7078; 23.821; 23.5928; 22.9486; 22.2457; 21.4827; 22.3625; 23.6852; 24.9722; 26.2252; 27.446; 27.157; 27.1293; 28.3141; 30.9451; 27.8389; 25.5138; 26.162; 27.4226; 25.7511; 25.7833; 24.3922; 25.5599; 25.7952; 25.2985; 25.5979; 25.741; 24.6416; 24.9066; 25.3272 
26.1721; 26.6253; 26.8653; 26.3218; 25.8342; 25.3249; 25.7388; 26.9719; 26.5078; 25.3596; 26.234; 26.4916; 24.3275; 24.55; 24.7677; 24.9809; 25.1901; 25.3956; 24.9795; 24.2701; 24.8431; 25.3222; 22.1714; 23.9857; 25.3962; 25.3637; 25.3163; 25.2535; 25.1748; 25.8198; 25.8609; 20.0603; 25.6446; 31.0172; 30.4274; 29.8513; 30.554; 30.5155; 29.9833; 29.4687; 28.9398; 28.3957; 27.8354; 27.258; 26.6621; 26.0466; 25.41; 24.7507; 24.8286; 24.9187; 24.9884; 25.0381; 25.0683; 25.344; 28.5129; 31.2395; 26.6585; 22.6938; 20.9546; 29.655; 29; 28.6912; 28.4708; 27.9704; 27.467; 27.773; 28.3783; 27.9065; 27.9781; 27.8154; 27.2624; 26.6564; 25.9969; 25.2829; 24.5131; 24.3144; 25.1832; 26.4963; 27.7773; 27.3769; 26.2744; 26.4587; 27.0769; 27.6955; 26.3743; 26.7581; 27.6054; 26.6195; 30.87; 27.7337; 27.8336; 27.8186; 27.2579; 26.0422; 27.4224; 26.3367; 24.4519; 25.1982; 25.7255 
25.7596; 26.6248; 27.1356; 27.3141; 27.0904; 26.5734; 26.446; 27.544; 27.7493; 27.3215; 26.8592; 26.1201; 24.6796; 24.9027; 25.1216; 25.3369; 25.5488; 25.7578; 25.9643; 26.1685; 26.3708; 25.9183; 23.6179; 23.1366; 22.57; 21.9743; 21.8869; 24.5719; 25.8234; 27.1945; 25.7747; 25.5581; 29; 30.3717; 30.2734; 29.5365; 30.2522; 30.9704; 31.1374; 30.586; 30.01; 29.4556; 28.8868; 28.3025; 27.7013; 27.082; 26.4431; 25.7828; 25.8094; 25.8923; 25.9559; 26.0008; 26.2558; 26.7162; 29.2034; 29.9081; 25.6985; 23.3026; 24.4002; 25.458; 28.601; 28.6008; 28.1927; 28.0934; 28.2483; 28.424; 28.78; 28.5968; 28.2393; 28.2026; 27.8375; 27.8809; 27.9276; 27.9778; 27.5445; 26.717; 26.6884; 27.9477; 26.8988; 25.6511; 25.4487; 26.5474; 26.4475; 27.5679; 27.264; 26.6621; 26.1905; 27.6719; 27.8466; 26.5823; 27.1318; 27.4263; 27.1076; 25.8732; 26.8296; 24.3701; 24.2965; 24.7704; 25.24 
25.9913; 26.9448; 27.1576; 27.3723; 27.5774; 27.7583; 27.3962; 27.7965; 27.2586; 26.6571; 26.065; 25.4633; 25.0309; 25.254; 25.4736; 25.6903; 25.9045; 26.1166; 26.3269; 26.5358; 26.7436; 26.9508; 27.1575; 27.3641; 25.9809; 23.8212; 22.8594; 22.207; 21.5218; 22.3713; 24.4855; 27.8776; 29; 29.8662; 30.117; 29.2258; 29.953; 30.6821; 31.4143; 31.7072; 31.1308; 30.5435; 29.9375; 29.3478; 28.743; 27.8784; 27.4822; 26.8231; 26.7957; 26.8707; 26.9278; 27.1312; 27.6048; 28.0729; 30.9082; 28.8546; 25.5732; 26.72; 27.8311; 28.9085; 29.197; 28.6984; 27.9431; 27.6428; 27.3433; 27.2604; 27.9865; 28.8481; 28.5406; 28.4179; 28.3763; 28.3317; 28.2841; 28.2334; 28.1794; 28.1221; 27.9125; 26.5493; 25.1042; 24.4658; 25.587; 26.7033; 25.8395; 27.0908; 26.0409; 25.8348; 27.5256; 27.4963; 27.0508; 27.6698; 27.9707; 27.6203; 26.8881; 25.7031; 24.7817; 24.7366; 24.6877; 25.0449; 25.5195 
26.6439; 26.8586; 27.0748; 27.2929; 27.5134; 27.6701; 27.5792; 26.9458; 26.3159; 25.702; 25.1028; 24.5174; 24.032; 25.5429; 25.8116; 26.0732; 26.3286; 26.5785; 26.8234; 27.0641; 27.301; 27.5349; 27.5393; 27.7539; 27.9698; 28.1873; 27.2901; 25.3254; 20.0249; 25.8639; 27.0512; 27.721; 29; 29.363; 29.9307; 28.9185; 29.6555; 30.3939; 31.1349; 31.8801; 31.9289; 31.6399; 31.0329; 30.3962; 29.7893; 29.1676; 28.5296; 27.8736; 27.7895; 27.8561; 27.9837; 28.4651; 28.9426; 29.3035; 31.458; 27.7863; 28.9811; 30.0931; 29.8401; 29.4788; 29.0999; 28.629; 27.8522; 27.539; 27.2386; 26.6884; 27.1371; 28.0701; 28.948; 28.6337; 28.5906; 28.5449; 28.4965; 28.4454; 28.2574; 27.9953; 27.1242; 26.2901; 24.6836; 22.0692; 25.5334; 25.7356; 25.4073; 26.9752; 25.5698; 26.5975; 26.3273; 25.7568; 26.822; 26.7663; 26.7916; 26.7186; 26.369; 25.6289; 25.2405; 25.1407; 25.0926; 25.3199; 25.7985 
26.5536; 26.7715; 26.952; 26.8511; 26.7502; 26.649; 26.5474; 25.8932; 25.2703; 24.6612; 24.0648; 23.4799; 22.2748; 22.0051; 24.1145; 26.1653; 26.4189; 26.6671; 26.9107; 27.1502; 27.3862; 27.6192; 27.8498; 28.0784; 28.3055; 28.5317; 28.7573; 28.9828; 27.6102; 25.8773; 25.6714; 26.7047; 27.7375; 29; 29.7805; 28.6139; 29.3592; 30.1053; 30.8535; 31.6054; 32.3625; 32.7377; 31.8754; 31.5022; 30.8691; 30.2221; 29.5873; 28.9364; 28.7931; 28.8508; 29.3104; 29.7652; 29.665; 30.1565; 31.0518; 30.7061; 30.4558; 30.1496; 29.7652; 29.3831; 29.0026; 28.5591; 27.7762; 27.4354; 27.1347; 26.3219; 26.7739; 27.2274; 27.9297; 28.9553; 28.8058; 28.7591; 28.5527; 28.2903; 28.0291; 27.2196; 26.3417; 22.8316; 25.516; 26.2211; 24.3982; 26.0858; 26.2768; 27.2699; 26.1439; 27.634; 25.1924; 25.7111; 24.8546; 25.199; 25.28; 25.2915; 25.3076; 25.5981; 25.9339; 25.6825; 25.4974; 25.5962; 26.2363 
26.1617; 26.0592; 25.9553; 25.8498; 25.7424; 25.6329; 25.5208; 24.0243; 24.2145; 23.6115; 23.0188; 22.4355; 20.989; 20.2514; 20.1456; 22.2649; 24.3639; 26.4475; 27.002; 27.2397; 27.4741; 27.7058; 27.9352; 28.1628; 28.3892; 28.6147; 28.8399; 29.0183; 29.5408; 27.3498; 26.7038; 25.8406; 26.7286; 27.8812; 29.3979; 28.3568; 29.0634; 29.8155; 30.5693; 31.3263; 32.088; 32.856; 33.2215; 32.5966; 31.9629; 31.3192; 30.6578; 30.0139; 29.8088; 30.154; 30.2652; 30.1642; 29.8757; 30.1261; 31.4596; 30.8185; 30.4415; 30.0538; 29.669; 29.2863; 28.9049; 28.4885; 27.7012; 27.3317; 27.0313; 25.9563; 26.4104; 26.8654; 27.3223; 27.782; 28.8551; 28.5892; 28.3252; 28.0627; 27.3283; 26.4461; 25.5634; 24.617; 25.5362; 25.9841; 25.3793; 26.6256; 26.6872; 26.5547; 26.573; 26.9195; 25.0351; 24.7132; 24.451; 24.4147; 24.4208; 24.4297; 24.5418; 24.8805; 25.219; 25.558; 25.8982; 25.8741; 26.2429 
25.1699; 25.0667; 24.9604; 24.8506; 24.737; 24.6193; 24.4971; 24.3701; 23.1465; 22.5506; 21.9628; 21.3821; 19.5774; 19.0192; 18.2956; 18.3442; 20.4565; 22.5456; 24.6162; 26.6731; 27.565; 27.7948; 28.0225; 28.2487; 28.4738; 28.6982; 28.9224; 25.6455; 27.7361; 28.8232; 28.9456; 27.9217; 27.2197; 26.7538; 28.9636; 28.1726; 28.7674; 29.524; 30.2817; 31.0421; 31.8068; 32.5773; 33.3553; 33.7001; 33.0676; 32.4271; 31.7771; 31.1159; 30.8718; 30.3018; 30.4794; 31.8296; 30.0229; 30.3191; 31.9198; 30.7845; 30.342; 29.9549; 29.5705; 29.1879; 28.8066; 28.417; 27.6271; 27.2277; 26.6074; 25.5906; 26.046; 26.5015; 26.9582; 27.5412; 27.8473; 28.149; 28.0962; 27.4402; 26.5569; 25.3784; 24.1681; 26.6476; 24.4764; 26.7469; 25.5372; 25.4451; 25.2883; 25.679; 24.9054; 21.9342; 23.6968; 23.4958; 23.5977; 23.5533; 23.5585; 23.5649; 23.8209; 24.1631; 24.5036; 24.8432; 25.1825; 24.4823; 25.2701 
24.1769; 24.0734; 23.9649; 23.8511; 23.7317; 23.6062; 23.4743; 23.3354; 22.0642; 21.4766; 20.8947; 20.3176; 19.7443; 17.8035; 17.1122; 16.3986; 16.5573; 18.6466; 20.7098; 22.7514; 24.7758; 26.7873; 28.1118; 28.3361; 28.5594; 28.7822; 29; 24.1356; 25.933; 28.0107; 30.7038; 30.3623; 29.5367; 28.7318; 29.716; 27.8722; 27.598; 27.9024; 29.889; 30.7523; 31.5181; 32.2893; 33.0676; 33.8545; 34.1855; 33.55; 32.9072; 33.9202; 34.997; 35.3742; 33.6359; 35.1318; 33.8622; 33.3379; 33.5385; 30.9097; 30.3767; 29.8527; 29.4695; 29.088; 28.7074; 28.327; 27.5535; 27.1233; 26.0438; 25.2241; 25.6798; 26.1349; 26.7583; 27.5218; 27.6974; 27.249; 27.9727; 27.4764; 26.9977; 26.5236; 25.6654; 25.3637; 25.1013; 24.9289; 26.1449; 26.4159; 25.7977; 24.318; 22.5688; 20.6154; 22.3549; 22.3057; 22.7418; 22.6869; 22.6914; 22.7507; 23.0994; 23.4443; 23.7861; 23.8745; 22.3986; 22.2999; 23.7542 
23.1804; 23.0769; 22.9666; 22.8492; 22.7242; 22.5913; 22.4501; 22.2999; 20.0045; 20.3872; 19.8123; 19.2397; 18.6686; 16.6018; 15.9429; 15.2598; 14.5528; 14.7424; 16.7931; 18.8145; 20.8109; 22.7863; 24.7444; 26.6891; 28.6239; 28.867; 28.0238; 23.0129; 26.2096; 29.4023; 31.3657; 29.6601; 30.2309; 29.1845; 27.9244; 27.6558; 27.3841; 27.1088; 26.8293; 26.5452; 28.0302; 29.8197; 31.5506; 33.2257; 34.3471; 34.6905; 34.8237; 34.6422; 33.2662; 32.7439; 32.9833; 32.7139; 32.3765; 31.4089; 29.2623; 31.8745; 30.5075; 29.98; 29.4516; 28.9862; 28.6073; 28.2282; 27.4805; 27.0181; 25.4797; 24.8561; 25.311; 25.9853; 26.3608; 26.4204; 26.4207; 26.3096; 26.2697; 26.5667; 26.8511; 26.9511; 24.6363; 22.1118; 23.4613; 20.5294; 23.0057; 23.2618; 23.0009; 22.0454; 20.2741; 19.2936; 21.0065; 21.1286; 21.8816; 21.8137; 21.8175; 22.0238; 22.3759; 22.7228; 23.065; 21.0288; 19.1668; 20.19; 21.6238 
20.8846; 22.075; 21.9631; 21.8424; 21.7123; 21.5725; 21.4224; 21.2614; 21.0888; 19.2798; 18.713; 18.146; 17.5782; 15.4115; 14.785; 14.1328; 13.4552; 12.7523; 12.8576; 14.8539; 16.8175; 18.752; 20.6609; 22.5476; 24.4151; 26.2665; 21.7001; 24.4202; 26.0211; 29.0126; 28.4109; 28.6431; 29.6431; 27.9674; 27.7052; 27.4399; 27.1713; 26.8988; 26.6218; 26.3398; 26.0522; 25.7584; 25.7991; 27.4154; 29.9807; 38.2565; 35.7297; 33.9925; 32.8446; 32.0189; 31.0733; 30.6339; 27.346; 27.6476; 27.3744; 29.8937; 29.5171; 30.0608; 29.598; 29.0754; 28.5503; 28.1291; 27.4077; 26.5171; 24.9137; 24.4857; 24.9047; 25.0035; 25.0808; 25.1366; 25.1538; 25.194; 25.1758; 25.4707; 25.5316; 23.9618; 22.8216; 19.96; 16.9091; 16.2775; 19.4215; 20.3182; 20.2177; 19.7631; 17.9987; 18.8636; 19.3965; 19.9617; 21.0151; 20.9317; 20.9348; 21.2941; 21.6488; 21.7336; 19.6002; 17.4087; 16.8373; 18.1452; 19.5545 
18.8429; 20.0701; 20.9522; 20.8285; 20.6938; 20.5475; 20.3891; 20.2178; 20.033; 16.7757; 17.5943; 17.0341; 16.4705; 14.2302; 13.6362; 13.0151; 12.3673; 11.693; 10.9923; 10.861; 12.7868; 14.6757; 16.5307; 18.3548; 19.8496; 19.47; 22.5308; 23.9919; 27.59; 25.8504; 26.1223; 26.3512; 26.1847; 26.3164; 26.2304; 26.1184; 25.9807; 25.8177; 25.6294; 25.4158; 25.1764; 24.9109; 24.6185; 24.2985; 28.1695; 34.5594; 33.6007; 31.6411; 31.1271; 29.4189; 27.7074; 26.8479; 26.1743; 25.9614; 26.2198; 26.4502; 25.6419; 23.6696; 24.114; 24.4472; 24.6699; 25.0081; 26.9287; 25.0937; 23.3807; 23.4051; 23.5147; 23.5983; 23.6558; 23.3928; 23.4727; 23.9259; 24.0988; 23.7682; 23.2671; 20.5663; 17.0402; 15.8323; 13.9925; 12.0925; 13.1781; 17.0876; 17.4419; 17.2842; 16.2626; 18.0615; 17.6104; 18.8024; 19.9684; 20.0389; 20.195; 20.5602; 20.1228; 18.0749; 15.9677; 14.2167; 14.5463; 16.1588; 17.5399 
16.8463; 18.0441; 19.9313; 19.8052; 19.6663; 19.514; 19.3478; 19.167; 18.9708; 16.5385; 16.4536; 15.9012; 15.3431; 13.0357; 12.4942; 11.9043; 11.2867; 10.6416; 9.96924; 9.26972; 8.70988; 10.5483; 12.3448; 14.1017; 12.6456; 15.9006; 18.6893; 21.8067; 22.8124; 22.0583; 22.0429; 21.946; 22.9883; 22.1469; 24.6141; 24.6601; 24.5337; 24.3798; 24.1985; 23.9898; 23.7533; 23.4886; 23.1951; 22.1955; 24.0446; 27.6433; 29.2074; 29.2524; 28.8165; 27.6861; 25.9925; 21.4626; 22.7699; 22.8133; 22.8447; 23.0103; 22.928; 20.6775; 18.3682; 19.7643; 22.1786; 19.5475; 23.1298; 23.4689; 20.7306; 23.9027; 22.0146; 22.0139; 22.0923; 21.5884; 20.2418; 21.3247; 22.1482; 21.1068; 20.8705; 20.1753; 19.4852; 13.1385; 12.759; 6.40024; 9.64834; 8.29266; 12.64; 14.5029; 13.4854; 15.7597; 16.4797; 17.6482; 18.7896; 19.1332; 19.4532; 18.365; 16.4158; 14.4052; 12.3298; 12.0166; 12.7643; 14.2247; 15.5738 
14.8892; 16.0545; 17.1482; 18.7699; 18.6273; 18.4697; 18.2965; 18.1069; 17.9; 17.675; 13.9144; 14.7446; 14.193; 12.1753; 11.3565; 10.7981; 10.211; 9.59565; 8.95238; 8.28135; 7.58261; 6.85606; 8.09384; 9.77917; 10.7686; 12.321; 14.8601; 12.8491; 16.3372; 17.6492; 17.6372; 17.9619; 19.8967; 18.7559; 20.3357; 22.6211; 23.0816; 22.937; 22.763; 22.5596; 22.3266; 22.0637; 21.7701; 20.3737; 21.4709; 23.7175; 25.0454; 26.8964; 26.4113; 25.6548; 23.9323; 22.9962; 21.4146; 20.0871; 19.7272; 19.6795; 19.6981; 18.0328; 16.3524; 18.0507; 19.7007; 18.6441; 23.6466; 21.6681; 20.8356; 21.6884; 21.3116; 21.6434; 20.7995; 19.4112; 18.1773; 17.0007; 16.4596; 16.1971; 18.361; 19.9724; 18.1798; 10.0924; 8.2711; 8.44017; 8.66952; 5.52788; 4.17023; 7.83605; 10.5724; 12.7596; 15.0722; 16.4967; 17.6107; 18.1979; 16.4228; 14.5857; 12.6846; 10.7166; 9.45456; 9.77011; 11.0129; 12.3371; 13.6506 
12.9663; 14.0961; 15.1556; 16.1459; 17.5744; 17.4121; 17.2326; 17.035; 16.8186; 16.5822; 13.7911; 13.561; 13.0174; 12.4623; 10.221; 9.69418; 9.13799; 8.55294; 7.93945; 7.2978; 6.62814; 5.9305; 5.2048; 5.76822; 7.31737; 8.7502; 8.77294; 8.2654; 11.0344; 13.2311; 13.2146; 14.975; 15.3474; 15.3252; 16.0861; 18.3075; 20.4049; 21.4862; 21.3197; 21.1222; 20.8935; 20.6332; 20.3406; 18.6473; 19.7161; 21.2194; 21.2993; 24.168; 24.2745; 25.5796; 22.3779; 19.9767; 19.3787; 19.0941; 18.4829; 17.8508; 16.5555; 15.3912; 13.8366; 14.8098; 12.0547; 14.4303; 16.6034; 17.8054; 16.2176; 17.9148; 16.1426; 16.1714; 16.5523; 13.5978; 10.9396; 6.55232; 9.73516; 9.07023; 10.2882; 11.1868; 6.34601; 0.0819637; 3.67948; 8.05477; 9.38235; 3.24726; 2.98434; 3.4197; 6.0599; 6.72753; 7.88711; 10.331; 11.8789; 14.2581; 12.5472; 10.7686; 8.92058; 6.94383; 7.28976; 7.57188; 9.28785; 10.4909; 11.765 
11.0727; 12.1637; 13.1863; 14.1411; 15.029; 16.3387; 16.1538; 15.9492; 15.7243; 15.4779; 13.6835; 11.4565; 11.8129; 11.2649; 8.94874; 8.59024; 8.06535; 7.51118; 6.92822; 6.31686; 5.67735; 5.00985; 4.88616; 4.06812; 5.15111; 6.80414; 5.16401; 5.787; 6.01762; 8.78605; 10.1524; 11.9629; 13.4221; 12.1423; 12.1441; 14.0071; 16.0336; 17.9372; 19.7189; 19.6747; 19.4509; 19.1941; 17.9886; 16.9212; 18.2748; 19.1729; 18.8713; 18.3538; 18.1238; 18.1555; 13.4496; 17.6238; 17.9647; 17.3001; 15.6183; 13.8594; 12.066; 12.2331; 13.728; 8.6144; 9.89398; 11.6533; 10.0163; 12.8468; 14.7224; 16.5486; 16.5793; 14.0445; 14.2077; 7.02997; -0.773215; -3.89606; -0.683072; 2.21788; 1.93252; 3.69219; -3.19247; -0.888686; -6.07564; 3.33243; 1.42867; 1.8554; 0.864191; 0.722543; 2.69946; 2.09141; 1.06524; 2.99546; 5.46873; 9.91161; 8.62022; 6.90493; 5.11529; 4.81988; 5.13383; 5.72737; 7.58515; 8.68108; 9.91215 
9.2037; 10.2528; 11.2354; 12.1521; 13.0034; 13.7895; 15.0574; 14.847; 14.6149; 14.3598; 14.0807; 11.4645; 10.5762; 10.0369; 8.19518; 7.48401; 6.99081; 6.4681; 5.91644; 5.33632; 4.72809; 4.71386; 3.04691; 1.33087; 1.27754; 2.95154; 3.6518; 2.02378; 3.88216; 5.43257; 7.28005; 9.03913; 10.2148; 8.98581; 8.36398; 9.71043; 11.6603; 13.4869; 15.1909; 16.7725; 17.9957; 17.7435; 15.8317; 14.897; 15.5457; 16.1181; 16.5991; 16.5646; 15.5085; 15.4065; 13.3018; 12.7861; 18.3602; 9.87367; 13.7165; 12.9101; 9.96823; 9.67627; 3.54513; 1.66874; 4.52027; 5.60317; 4.14746; 8.35279; 9.56292; 9.95259; 15.0885; 13.4642; 11.3908; 0.0717343; -1.87637; -2.88622; -11.1497; -8.37912; -5.91937; -7.29506; -9.47563; -11.9219; -7.64795; -4.83781; -2.77262; 4.54609; 0.328027; 0.815987; -1.00649; -0.410845; 0.758477; -1.78568; -3.60618; 4.41613; 4.63237; 2.98536; 2.35397; 2.699; 2.98198; 4.13682; 5.90088; 6.90323; 8.08742 
7.35487; 8.3587; 9.29837; 10.1742; 10.9864; 11.7351; 12.4203; 13.7258; 13.4879; 13.2259; 12.9387; 11.4934; 9.46024; 8.77461; 7.45595; 6.37319; 5.91208; 5.42143; 4.90189; 4.43417; 3.93101; 1.95082; 0.056909; -0.631492; -1.36361; 0.2212; 0.945622; 0.101208; 3.62507; 2.06294; 3.83971; 6.07728; 7.02351; 5.84883; 4.57185; 5.40826; 7.27539; 9.01971; 10.6415; 12.1408; 13.6879; 15.7472; 15.6453; 14.2977; 13.2275; 13.1601; 13.0376; 12.86; 12.2424; 11.9719; 10.2926; 12.3676; 14.4283; 11.9711; 11.454; 11.5544; 8.63277; 7.2434; 3.58093; 1.0154; 3.80916; 3.70123; 3.75682; 2.58729; 3.80093; 5.38907; 7.0284; 10.1647; 10.1804; 6.12343; -3.07236; -7.49192; -9.04624; -8.07081; -4.11695; -9.60894; -10.0549; -10.8449; -11.0052; -8.1864; -6.89347; -2.32965; -5.39263; -4.65803; -9.29746; -8.65987; -5.36004; -4.10703; -0.651308; -2.61952; 0.57379; 0.112623; 0.261933; 0.576393; 0.840985; 2.5638; 3.95403; 5.15303; 6.28646 
5.52189; 6.47698; 7.37053; 8.20262; 8.97327; 9.6824; 10.3299; 10.9154; 11.4386; 11.9262; 11.7806; 11.4601; 9.62203; 7.69187; 6.93732; 5.35531; 4.82681; 4.36887; 3.96126; 2.30013; 0.535073; -1.38693; -1.75681; -2.26644; -3.35954; -2.5188; -2.16547; -3.1563; -3.1813; -4.07884; -5.41434; 1.30847; 2.96; 2.72464; 1.50895; 1.09125; 2.86927; 4.65814; 6.93739; 9.15257; 11.2999; 12.9479; 13.2989; 13.1193; 12.865; 12.1198; 11.1559; 10.9855; 11.0351; 9.86416; 8.00762; 3.14548; 7.41808; 9.82923; 11.0629; 10.7361; 7.40957; 4.90142; 2.60074; 0.375957; 0.65176; -2.22764; 0.447126; 1.40218; 1.11932; 0.185985; 1.56609; 2.56956; 3.38328; 0.860535; -3.01908; -2.80606; -4.1805; -4.10155; -7.58726; -10.3098; -9.02842; -9.77; -10.078; -10.0315; -11.2771; -10.4449; -11.8051; -10.4108; -9.61101; -13.4344; -18.7989; -18.1116; -18.7107; -10.6652; -4.09648; -2.18099; -1.83731; -1.55273; -0.615949; 1.00493; 2.28567; 3.42643; 4.5051 
3.70059; 4.60332; 5.44743; 6.23278; 6.95919; 7.62642; 8.23416; 8.78201; 9.26948; 9.696; 10.0609; 10.28; 9.92608; 7.9603; 6.18361; 4.71915; 2.80871; 1.78301; 0.335649; -1.21439; -2.86788; -3.41538; -3.47985; -4.17866; -5.20056; -6.79595; -12.58; -18.0466; -23.2482; -22.4049; -16.8263; -11.3563; -5.01982; -5.79113; -3.61959; -1; 0.579334; 2.75228; 4.86722; 6.92044; 8.7415; 10.1758; 10.8994; 10.7418; 10.5124; 10.2122; 9.8422; 9.40315; 8.89579; 8.05452; 9; 7.51272; 5.83299; 4.64958; 9.88526; 8.88264; 1.83278; 1.98039; 0.310466; 0.21944; -0.04; -1; -0.502569; -0.471469; -3.70804; -1.00542; -1.04149; -0.130109; -0.16324; -2; -1.8551; -3.0463; -9.90981; -4.38359; -2.87051; -9.41174; -9.22008; -11.6433; -9.15048; -14.2959; -12.3156; -10.3229; -20.8215; -23.9425; -18.2786; -21.6994; -29.919; -25.274; -19.3097; -17.4509; -13.047; -8.72083; -3.94866; -3.62234; -2.05838; -0.543003; 0.641512; 1.7196; 2.73932 
1.88687; 2.73343; 3.5246; 4.26005; 4.9394; 5.56227; 6.12819; 6.63666; 7.08711; 7.47886; 7.81119; 8.08325; 8.29411; 8.34275; 5.45421; -1.86852; -9.53701; -13.4573; -11.7181; -8.42691; -6.21896; -9.31434; -12.8486; -14.7245; -15.5577; -14.9871; -17.5295; -17.9911; -22.348; -23.8614; -19.024; -13.9774; -9.0089; -8.87758; -4.76704; -2.56561; -1.1564; 0.8461; 2.79344; 4.68184; 6.10531; 7.42485; 8.42148; 8.36247; 8.15731; 7.88469; 7.54547; 7.14047; 7.13666; 6.68504; 6.5614; 7.60167; 5.2374; 5.89638; 8.28457; 8.84366; 6.24942; 4.63215; 1.10872; 0.304513; -1.59142; -2.78713; -2.95723; -1.55742; -4.70091; -8.81069; -7.12182; -3.92135; -2.28816; -3.388; -0.186211; -2.81056; -1.26333; 0.315833; -1.35743; -8.51371; -13.8606; -6.1292; -4.65269; -4.63111; -14.3928; -16.3106; -21.5121; -28.7436; -24.5852; -30.3045; -35.5967; -29.1883; -27.8577; -21.8607; -20.3197; -17.9724; -15.7221; -14.0764; -3.48915; -2.08314; -0.981939; 0.028851; 0.985233 
0.0766912; 0.86304; 1.59756; 2.27974; 2.90904; 3.48494; 4.00685; 4.47417; 4.88625; 5.24237; 5.54177; 4.46894; 2.89235; -1.3307; -6.86279; -13.478; -13.0473; -11.7382; -10.8497; -9.68664; -9.70264; -11.9138; -14.113; -14.9496; -14.7922; -15.3116; -16.2188; -16.1998; -16.5663; -19.5268; -19.8001; -16.2772; -11.7491; -7.57733; -8.8323; -3.24918; -1.57013; -1.06451; 0.711609; 2.2062; 3.48632; 4.68885; 5.81113; 5.97622; 5.79465; 5.54942; 5.24136; 5.21444; 5.35233; 4.98973; 5.75941; 6.4837; 6.74119; 7.21098; 4.03703; 7.17232; 5; 3.96; 2.63662; 0.306884; -0.547616; -2.58311; -4.51804; -4.35237; -4.26754; -5.30319; -6.44883; -11.6349; -8.14775; -5.02785; -4.211; -4.01593; -2.65438; -2.09993; -3.3909; -6.07418; -9.46318; -4.64537; -6.73272; -8.33043; -15.4997; -19.2187; -26.6012; -25.0256; -29.8724; -37.1471; -43.6678; -32.0136; -25.1157; -24.7248; -20.3808; -16.4778; -13.4122; -19.5192; -15.4914; -6.12254; -3.20114; -1.64938; -0.760964 
-6.32152; -4.92681; -3.78496; -2.89794; -2.26748; -1.89512; -1.7822; -1.92984; -2.33898; -3.0103; -4.12559; -7.79988; -11.8948; -13.464; -13.7259; -14.2312; -15.0238; -14.1971; -13.0987; -12.0552; -11.0695; -11.6508; -13.623; -15.5797; -15.0686; -14.2075; -14.0377; -14.4128; -14.7402; -15.0189; -16.3046; -19.0348; -14.477; -10.4727; -7.28927; -7.42216; -2.95333; -1.15503; -1.49687; -0.274968; 0.878841; 1.96189; 2.97159; 3.57792; 3.41929; 3.20135; 3.30871; 3.51953; 3.55833; 4.23109; 5.09397; 4.69952; 4.01095; 4.02398; 4.04; 7.18103; 2; 1.03032; 1.06539; -0.126078; -3.01666; -5.57766; -7.83269; -7.40161; -8.54906; -9.11384; -7.48074; -7.03876; -14.828; -15.96; -10.9497; -11.0887; -11.2124; -9.13801; -10.1426; -10.6956; -17.4342; -19.151; -19.9634; -18.3112; -16.0655; -16.2765; -20.786; -30.6742; -37.8288; -44.4412; -42.8663; -38.883; -35.6119; -29.9844; -37.9503; -31.5552; -23.8132; -19.0693; -16.9982; -15.7693; -14.9883; -10.3441; -7.96691 
-16.7687; -14.4195; -13.3984; -12.6076; -12.0487; -11.7233; -11.6326; -12.2485; -14.3369; -16.8235; -19.7017; -22.964; -23.0163; -20.6991; -19.1471; -18.0527; -16.9975; -15.9847; -15.0176; -14.0992; -13.2322; -12.4195; -13.144; -14.8728; -15.8242; -15.4144; -14.6826; -13.9823; -13.3158; -13.1584; -13.3577; -13.5115; -13.6193; -13.5895; -9.95055; -7.26078; -5.81165; -4.92316; -2.75604; -1.60773; -0.805865; -0.08772; 0.538606; 0.959365; 1.15087; 1.71843; 2.35519; 2.63066; 3.05718; 3.69074; 4.25128; 4.7372; 4.4856; 4.63315; 2.18472; 7.18652; 2; 1.11196; -0.04; -2.23614; -4.94006; -7.10479; -11.9135; -13.1799; -10.8551; -12.1331; -15.7871; -15.9745; -13.1327; -12.7639; -13.5015; -11.7536; -11.7662; -12.8908; -14.7849; -17.0304; -20.1854; -22.6908; -26.5596; -28.381; -29.4813; -30.8711; -34.4873; -40.2319; -43.2391; -39.1902; -44.5466; -42.4699; -45.4746; -30.7594; -41.5405; -29.8821; -26.7623; -25.2496; -31.4299; -23.0936; -18.1434; -18.8094; -18.6198 
-27.8211; -26.0696; -22.3594; -21.2001; -21.7414; -22.4088; -23.2; -24.1124; -25.1429; -25.1009; -24.7772; -23.5633; -23.9197; -23.4244; -21.4861; -19.6165; -18.635; -17.7607; -16.926; -16.1336; -15.3861; -14.686; -14.0355; -14.1722; -15.6536; -16.6207; -16.0133; -15.3806; -14.8042; -14.2594; -13.7477; -13.2711; -12.831; -12.429; -12.1082; -17.2233; -19.7205; -11.959; -8.10631; -8.21452; -8.76489; -8.43364; -5.69359; -3.46714; -2.37484; -0.140486; -0.413179; -0.318475; 0.141191; 0.690972; 1.17295; 1.53937; 1.83422; 2.0807; -4.79606; 0.742291; -7.3234; -5.22433; -4.01032; -5.74789; -7.19419; -9.91583; -8.70091; -15.916; -18.7276; -19.5016; -18.629; -15.283; -17.5101; -14.3536; -12.2371; -9.30049; -14.102; -20.2117; -24.6353; -26.2022; -27.9578; -28.4266; -28.0081; -28.001; -31.3704; -36.9148; -41.76; -42.7691; -37.7664; -32.882; -40.0475; -42.2377; -35.6401; -31.5344; -31.6152; -31.3288; -31.2241; -36.4541; -39.9952; -35.5614; -31.7853; -31.7307; -30.0271 
-26.0301; -25.8481; -25.7186; -25.5689; -25.3995; -25.2112; -25.0045; -24.7802; -24.539; -24.2818; -24.0094; -23.7226; -23.4224; -23.1097; -22.7856; -22.451; -21.4166; -19.9767; -18.8281; -18.163; -17.536; -16.9492; -16.4047; -15.9043; -15.4498; -15.8448; -17.1652; -16.7844; -16.2995; -15.8418; -15.4127; -15.0137; -14.6462; -14.3115; -12.1088; -18.6773; -22.1341; -25.6165; -27.3115; -27.9012; -27.491; -24.0479; -20.9193; -17.6167; -13.0899; -9.97933; -7.14897; -4.18306; -2.81004; -2.30205; -1.87074; -1.51758; -1.24381; -1.05045; -0.938299; -1.79054; -5.1862; -4.47703; -5.8758; -5.60894; -5.27139; -9.09674; -8.4403; -9.85216; -10.1902; -9.64204; -12.4556; -16.2707; -19.3884; -25.7206; -26.4624; -23.3963; -20.4163; -23.0249; -27.8283; -31.0981; -30.9719; -30.0484; -28.2428; -34.1117; -37.781; -39.647; -43.2946; -43.7297; -42.0494; -35.6121; -31.9853; -29.847; -29.5788; -29.4501; -30.182; -30.7512; -31.24; -31.9429; -30.8343; -29.0305; -27.3857; -26.9821; -26.5298 
-26.7146; -26.9872; -26.3228; -24.6015; -24.3626; -24.2112; -24.0448; -24.136; -23.6693; -23.4614; -23.2412; -23.0092; -22.7663; -22.5132; -22.251; -21.9803; -21.7021; -21.4175; -21.1272; -20.8324; -20.534; -19.8249; -18.9957; -18.3742; -18.0098; -17.6843; -17.3991; -17.1551; -17.6614; -17.4355; -17.0898; -16.6901; -19.6779; -24.2526; -24.1337; -24.0258; -25.1397; -26.5053; -27.6772; -27.3489; -29.4235; -29.9915; -27.0314; -26.898; -24.8155; -19.7577; -15.9742; -13.4228; -11.0152; -8.75999; -6.66514; -5.60356; -5.52938; -5.37543; -5.2876; -5.98295; -7.25192; -8.33205; -9.00578; -9.2379; -9.52534; -9.86699; -10.2616; -10.6801; -11.0459; -11.4571; -13.1939; -16.3853; -19.4858; -22.484; -23.0611; -23.0403; -22.3985; -24.3958; -23.5903; -24.2593; -25.205; -26.1524; -27.3193; -30.3751; -33.076; -32.4547; -31.9083; -31.2491; -30.4643; -29.5566; -27.5367; -25.861; -25.4271; -26.5929; -26.2778; -25.7378; -25.6248; -25.468; -25.5521; -25.755; -25.9735; -26.2069; -26.4542 
-27.4978; -27.7036; -27.9178; -27.4868; -26.9868; -26.5108; -26.0607; -25.6381; -23.2406; -22.638; -22.4709; -22.2948; -22.1105; -21.9184; -21.7193; -21.5139; -21.3029; -21.087; -20.8671; -20.6439; -20.4182; -20.1909; -19.9627; -19.7345; -19.5072; -19.2817; -19.1796; -21.334; -23.7134; -25.2472; -25.6451; -26.0731; -25.9939; -25.6936; -25.452; -25.2701; -25.1483; -25.0873; -25.0872; -25.148; -25.2695; -25.4513; -25.6927; -25.9929; -26.7252; -26.5598; -24.196; -21.9388; -19.7967; -17.7779; -15.8902; -14.2925; -13.1169; -11.8328; -11.9635; -11.7166; -11.3212; -11.8671; -12.6799; -12.8536; -13.0594; -13.2267; -13.431; -13.6715; -13.9472; -14.2572; -14.6003; -14.9751; -16.6196; -16.1855; -17.2868; -18.0544; -20.8578; -20.3096; -21.4323; -22.4987; -23.5147; -24.0272; -24.0219; -24.056; -24.2605; -24.5906; -24.9589; -24.4545; -24.0769; -24.6332; -25.2123; -25.8119; -25.984; -26.0547; -26.1401; -26.2398; -26.3536; -26.4809; -26.6212; -26.7739; -26.9386; -27.1146; -27.3013 
-28.2813; -28.4195; -28.5634; -28.7124; -28.8659; -28.6811; -28.3796; -28.0965; -27.833; -27.5901; -27.3688; -27.1698; -26.994; -26.842; -26.7145; -26.612; -26.5349; -26.4834; -26.4579; -26.4584; -26.4849; -26.5375; -26.6159; -26.7198; -26.8489; -27.0027; -27.1806; -27.382; -27.6061; -27.8521; -28.119; -28.4058; -28.7114; -29.0346; -29.3741; -29.7287; -30.0969; -30.2668; -30.2668; -30.3079; -30.39; -30.5126; -31.067; -31.8277; -31.7876; -30.4304; -28.992; -27.4779; -25.8941; -24.2468; -22.5425; -20.7878; -18.9896; -17.9622; -17.5239; -17.1778; -16.9254; -16.7675; -16.7046; -16.737; -16.8645; -17.0865; -17.4021; -17.81; -18.3087; -18.8961; -19.57; -20.3277; -20.9555; -21.4831; -22.0693; -22.7118; -23.3769; -23.4726; -23.5959; -23.7463; -23.9233; -24.1259; -24.3536; -24.6052; -24.8799; -25.1764; -25.4937; -25.8305; -26.1855; -26.5572; -26.9442; -27.2322; -27.2687; -27.3154; -27.3721; -27.4385; -27.5144; -27.5994; -27.6933; -27.7956; -27.906; -28.0241; -28.1493 
-29.0668; -29.1364; -29.209; -29.2841; -29.3615; -29.4409; -29.5219; -29.6044; -29.6879; -29.772; -29.8566; -29.9412; -30.0011; -29.925; -29.8612; -29.81; -29.7716; -29.7462; -29.7339; -29.7347; -29.7487; -29.7757; -29.8158; -29.8686; -29.9341; -30.012; -30.102; -30.2037; -30.3167; -30.4407; -30.575; -30.7193; -30.8728; -31.0351; -31.2054; -31.2014; -31.1975; -31.1882; -31.1734; -31.1533; -31.1279; -31.0973; -30.9759; -30.7495; -30.5219; -30.2938; -30.0662; -29.8401; -29.6164; -29.3959; -29.1797; -28.9684; -28.7631; -28.5553; -28.3225; -28.1213; -27.9526; -27.817; -27.6996; -27.5571; -27.4261; -27.3072; -27.2008; -27.1074; -27.0274; -26.961; -26.9085; -26.8701; -26.8459; -26.8361; -26.8406; -26.8594; -26.8925; -26.9397; -27.0008; -27.0756; -27.1637; -27.2648; -27.3785; -27.5043; -27.6417; -27.7902; -27.9491; -28.1179; -28.2959; -28.4823; -28.5278; -28.5405; -28.5585; -28.5816; -28.6098; -28.643; -28.681; -28.7236; -28.7708; -28.8222; -28.8778; -28.9372; -29.0003 
