0.597075; 0.673053; 0.750047; 0.827748; 0.905844; 0.984018; 1.06196; 1.13935; 1.21587; 1.29122; 1.3651; 1.43719; 1.50722; 1.57489; 1.63993; 1.70207; 1.76106; 1.81667; 1.86865; 1.91681; 1.96094; 2.00087; 2.03642; 2.06746; 2.09386; 2.11551; 2.13232; 2.14423; 2.15118; 2.15315; 2.15013; 2.14213; 2.12919; 2.11135; 2.0887; 2.06133; 2.02935; 1.99288; 1.95209; 1.90713; 1.8582; 1.80549; 1.74921; 1.6896; 1.6269; 1.56136; 1.49325; 1.42285; 1.35044; 1.27632; 1.20078; 1.12413; 1.04668; 0.968743; 0.890632; 0.812661; 0.735142; 0.658387; 0.582704; 0.508394; 0.435757; 0.365081; 0.29665; 0.230735; 0.167599; 0.107495; 0.0506606; -0.00267773; -0.052308; -0.0980331; -0.139671; -0.177058; -0.210044; -0.238499; -0.26231; -0.281382; -0.295641; -0.305028; -0.309506; -0.309058; -0.303685; -0.293408; -0.278266; -0.258321; -0.23365; -0.20435; -0.170537; -0.132346; -0.089926; -0.0434463; 0.00690925; 0.0609408; 0.118434; 0.17916; 0.242877; 0.309331; 0.378258; 0.449382; 0.522418 
0.270093; 0.422037; 0.576078; 0.7316; 0.887977; 1.04458; 1.20078; 1.35593; 1.50942; 1.66061; 1.8089; 1.95366; 2.09432; 2.23028; 2.361; 2.48594; 2.60457; 2.7164; 2.82098; 2.91788; 3.00668; 3.08702; 3.15857; 3.22103; 3.27413; 3.31767; 3.35147; 3.37537; 3.38929; 3.39316; 3.38698; 3.37078; 3.34462; 3.30861; 3.26291; 3.20771; 3.14325; 3.06978; 2.98763; 2.89713; 2.79866; 2.69263; 2.57947; 2.45965; 2.33368; 2.20205; 2.06532; 1.92405; 1.7788; 1.63017; 1.47877; 1.3252; 1.1701; 1.01407; 0.857756; 0.701779; 0.546765; 0.393333; 0.242095; 0.0936539; -0.0514019; -0.192497; -0.329072; -0.460587; -0.586525; -0.706388; -0.819705; -0.926031; -1.02495; -1.11607; -1.19904; -1.27353; -1.33925; -1.39594; -1.52958; -2.38341; -3.08565; -3.63345; -3.97545; -3.74271; -4.33061; -4.24405; -4.03777; -3.59255; -3.02977; -2.31143; -1.44014; -1.18527; -1.10081; -1.00824; -0.907917; -0.800236; -0.685617; -0.56451; -0.437392; -0.304763; -0.167146; -0.025086; 0.120854 
-1.27184; -1.44696; -1.57907; -1.66796; -1.71365; -1.71634; -1.67647; -1.59465; -1.47167; -1.30851; -1.10627; -0.866246; -0.589834; -0.27857; 0.0659029; 0.44184; 0.847409; 1.2807; 1.73973; 2.22246; 2.72682; 3.25067; 3.79188; 5.98262; 4.46321; 4.52892; 4.57988; 4.61589; 4.63679; 4.6425; 4.633; 4.60834; 4.56863; 4.51405; 4.44483; 4.36128; 4.26374; 3.84735; 3.97153; 3.89173; 3.74301; 3.58293; 3.41217; 3.23143; 3.04147; 2.84309; 2.63709; 2.42432; 2.20567; 1.98202; 1.75428; 1.52337; 1.29024; 1.05582; 0.821056; 0.586882; 0.354236; 0.124044; -0.102781; -0.325341; -0.542758; -0.754175; -0.958764; -1.15572; -1.34428; -1.5237; -2.58201; -5.41879; -7.90787; -10.5918; -1.58037; -1.58509; -1.5953; -1.61123; -1.66161; -1.97043; -2.32174; -2.64255; -3.08623; -3.67606; -4.33047; -5.02064; -5.74868; -6.47363; -7.22016; -4.7658; -4.89703; -18.6452; -16.9108; -14.9635; -12.8106; -10.46; -7.92057; -5.20187; -2.31431; -0.923871; -0.717678; -0.794516; -1.05414 
-3.49873; -3.80295; -3.91867; -3.66663; -3.44132; -3.24301; -3.07188; -2.92798; -2.81131; -2.72176; -2.65918; -2.62332; -2.6139; -2.63056; -2.67292; -2.74054; -1.39604; -0.436627; 0.591702; 1.68514; 2.83981; 3.94826; 2.36484; 3.10654; 4.1362; 4.63375; 7.57491; 5.86865; 5.89655; 5.904; 5.89099; 5.85759; 5.80395; 5.73033; 5.63705; 5.52452; 5.39324; 5.24379; 5.0768; 4.89302; 4.69321; 4.47824; 4.24901; 3.9935; 3.75173; 3.48576; 3.2097; 2.9247; 2.63192; 2.33257; 2.02787; 1.71905; 1.40738; 1.09411; 0.78048; 0.467757; 0.157182; -0.150015; -0.452621; -0.749446; -1.03933; -1.32113; -1.59376; -2.97669; -7.30937; -7.94474; -6.26556; -4.78664; -3.51275; -2.44796; -1.96171; -1.90137; -1.86157; -1.84244; -1.84401; -1.86628; -1.90915; -1.97246; -2.5916; -3.68467; -4.98473; -6.4874; -7.81238; -10.0796; -11.8429; -14.4129; -4.83086; -19.4279; -22.1697; -14.9225; -13.7732; -12.252; -6.14313; -15.883; -9.90583; -0.908527; -3.64318; -3.95792; -3.92804 
-3.02264; -2.65629; -2.32314; -2.02357; -1.75778; -1.52585; -1.32775; -1.16331; -1.0323; -0.9344; -0.869206; -0.836267; -0.835075; -0.86508; -0.925691; -1.01629; -1.13623; -1.28483; -1.46141; -1.66525; -1.89562; 0.266825; 1.82693; 3.44488; 5.11592; 6.83519; 4.787; 5.76296; 9.05905; 7.1806; 7.16386; 7.12139; 7.05339; 6.96019; 6.84222; 6.70002; 6.53422; 6.34557; 6.13489; 5.90313; 5.65128; 5.38043; 5.09176; 4.78649; 4.46592; 4.1314; 3.78434; 3.42618; 3.05841; 2.68253; 2.30009; 1.91264; 1.52175; 1.12899; 0.735936; 0.344151; 0.0448121; -0.42942; -0.808163; -1.17956; -1.54217; -1.89457; -3.13125; -1.84423; -1.60283; -1.3837; -1.18751; -1.01487; -0.866293; -0.742227; -0.643032; -0.568989; -0.520304; -0.497101; -0.499428; -0.527257; -0.580481; -0.658918; -0.762309; -0.890319; -1.04254; -1.21848; -1.41758; -1.6392; -1.88262; -4.44686; -6.55875; -9.76728; -13.168; -14.8815; -13.5866; -12.5228; -4.36569; -3.66611; -3.63083; -3.63544; -3.68022; -3.44001; -3.42168 
-1.05787; -1.0745; -0.692841; -0.352117; -0.0522553; 0.206964; 0.425887; 0.604965; 0.744741; 0.845827; 0.908897; 0.93467; 0.923902; 0.877376; 0.795893; 0.680271; 0.531334; 0.349912; -0.136838; -0.107055; -0.380933; -0.683962; 1.01531; 0.320298; 2.29362; 4.32191; 6.39982; 8.52194; 6.53308; 7.69749; 10.557; 8.40274; 8.31988; 7.7935; 7.93686; 7.89046; 7.68926; 7.46046; 7.20509; 6.92429; 6.6193; 6.29146; 5.9422; 5.57303; 5.18553; 4.78135; 4.36218; 3.9298; 3.486; 3.91908; 3.61975; 3.28525; 2.91555; 2.51066; 2.0706; 1.59546; 1.08538; 0.540571; -0.0386355; -0.669995; -1.0495; -1.31452; -1.05518; -0.742817; -0.456251; -0.19634; 0.0361552; 0.240568; 0.416324; 0.56294; 0.680023; 0.767269; 0.824461; 0.851469; 0.848247; 0.814838; 0.751365; 0.658039; 0.535153; 0.383086; -0.202299; -0.00666106; -0.243161; -0.506483; -0.795823; -1.11029; -1.44891; -1.8106; -3.94874; -2.16947; -1.94067; -1.7559; -1.616; -1.52168; -1.47358; -1.47224; -0.938946; -0.933919; -0.973694 
1.35556; 1.20879; 0.974377; 1.34972; 1.67716; 1.95734; 2.19097; 2.3789; 2.52202; 2.62129; 2.67771; 2.69228; 2.66603; 2.6; 2.49521; 2.35268; 2.1734; 1.95836; 1.70853; 1.42483; 1.10821; 0.759557; 0.379766; 0.0302902; 0.469748; 1.84251; 4.22593; 6.65902; 9.13598; 8.08444; 9.04694; 9.70479; 9.60651; 9.47227; 9.30271; 9.09866; 8.86107; 8.59105; 8.28984; 7.95881; 7.59944; 7.21335; 6.80221; 6.36784; 5.91211; 6.59944; 6.42521; 6.21277; 5.96199; 5.67267; 5.34459; 4.97752; 4.57118; 3.87469; 3.63966; 2.62619; 2.38437; 2.09376; 1.75514; 1.36932; 0.937095; 0.459278; 0.273407; 0.538582; 0.772377; 1.00178; 1.26975; 1.50515; 1.70735; 1.87586; 2.01026; 2.11024; 2.17557; 2.20612; 2.20186; 2.16284; 2.08921; 1.9812; 2.25588; 2.35992; 2.39246; 2.35285; 2.24061; 1.78271; 1.26523; 0.715079; -0.13243; -0.482498; -0.184845; 0.224724; 0.119397; 0.337539; 0.50469; 0.619976; 0.682613; 0.69192; 1.51041; 1.50681; 1.45503 
3.7098; 3.54516; 2.68077; 3.084; 3.43244; 3.7272; 3.96948; 4.16055; 4.30173; 4.39434; 4.43974; 4.43926; 4.39421; 3.69413; 3.8245; 3.99569; 3.79346; 3.54408; 3.25725; 2.93401; 2.57535; 2.18222; 1.75556; 1.29623; 0.805119; 0.283048; 2.06922; 4.80414; 7.58791; 10.4144; 9.27012; 13.0033; 10.9165; 10.7607; 10.564; 10.3276; 10.0525; 9.74006; 9.39173; 9.00913; 8.594; 7.85179; 7.67375; 8.65211; 8.546; 8.39947; 7.78758; 7.98463; 7.71581; 7.40562; 7.05364; 6.65938; 6.22232; 5.19428; 5.02804; 4.80698; 4.53195; 3.79618; 3.8234; 3.3915; 2.90894; 2.37649; 1.79496; 1.88679; 2.14662; 2.37168; 2.51601; 2.78164; 3.00961; 3.19938; 3.35055; 3.4628; 3.5359; 3.56975; 3.82296; 4.25769; 4.61684; 4.89911; 5.10333; 5.08591; 4.66574; 3.79024; 3.71794; 3.19023; 2.62654; 2.02682; 1.39099; 1.52201; 2.08901; 2.61126; 2.94054; 2.43052; 2.626; 2.76363; 2.84248; 2.86171; 3.90345; 3.88943; 3.8247 
6.01175; 5.82989; 5.59686; 4.85287; 5.2156; 5.51853; 5.7634; 5.95197; 6.08602; 6.16729; 6.19749; 6.17828; 6.11127; 5.99799; 5.83991; 5.63843; 5.39487; 5.11049; 4.78646; 4.4239; 3.97614; 3.58733; 3.11524; 2.60848; 2.06787; 1.49423; 0.888302; 2.95151; 6.03374; 9.16346; 11.6657; 11.1999; 14.2959; 11.9249; 11.8504; 11.5804; 11.2666; 10.9104; 10.5135; 10.0778; 9.60538; 10.5379; 10.509; 10.438; 10.3249; 10.1696; 9.97192; 9.73155; 9.44808; 9.12095; 8.74955; 7.61538; 7.54452; 7.41283; 7.22135; 6.9711; 6.66303; 6.29805; 5.87704; 5.40079; 4.8701; 3.71429; 3.64833; 3.22903; 3.51345; 3.76038; 3.96953; 4.14058; 4.32599; 4.53643; 4.70384; 4.82792; 5.29517; 5.94513; 6.51508; 7.00338; 7.40854; 7.41446; 7.03872; 6.6253; 6.17408; 5.68488; 5.15747; 4.59159; 3.98694; 3.34321; 3.02; 3.68214; 4.2991; 4.87049; 5.39576; 5.56211; 4.75273; 4.91407; 5.01077; 5.04183; 6.24663; 6.22065; 6.14216 
7.7322; 7.93068; 7.81859; 7.51571; 7.0287; 7.33332; 7.57473; 7.75524; 7.87709; 7.94245; 7.95341; 7.91196; 7.81999; 7.67927; 7.49148; 7.25819; 6.98086; 6.66086; 6.29945; 5.89779; 5.45699; 4.97805; 4.46188; 3.90936; 3.32128; 2.69836; 2.04131; 1.35077; 4.46862; 7.89413; 11.3655; 11.6619; 15.4039; 13.4192; 13.1653; 12.8605; 12.5066; 11.8949; 11.6581; 11.7619; 11.7071; 11.6962; 11.7287; 11.8046; 11.9238; 11.9136; 11.7074; 11.457; 11.1619; 10.8215; 9.88875; 9.86475; 9.77495; 9.62061; 9.40295; 9.12309; 8.78207; 7.61914; 7.92035; 7.40135; 6.82458; 6.19074; 5.50044; 4.75425; 4.87582; 5.14356; 5.37112; 5.55823; 5.70456; 5.89005; 6.18644; 7.07281; 7.87579; 8.59347; 9.22408; 9.66827; 9.34589; 8.98467; 8.58448; 7.85486; 7.66636; 7.14778; 6.58898; 5.98947; 5.34873; 4.66617; 5.07998; 5.78902; 6.45252; 7.07025; 7.64179; 7.98358; 8.07868; 7.07615; 7.19233; 7.23709; 8.546; 8.50669; 7.58625 
10.4839; 10.2694; 10.0021; 9.68207; 8.87388; 9.17363; 9.40553; 9.57245; 9.67711; 9.72212; 9.70995; 9.64288; 9.52308; 9.35257; 9.13319; 8.86666; 8.55458; 7.80161; 7.79942; 7.35889; 6.8779; 6.35745; 5.79845; 5.20173; 4.56801; 3.89797; 3.19221; 2.45125; 2.88759; 6.60232; 10.3678; 14.1774; 14.1385; 14.7969; 14.5125; 14.1716; 13.776; 13.3276; 13.8874; 13.9849; 14.0373; 14.0451; 14.0086; 13.9282; 13.8038; 13.6352; 13.4222; 13.1642; 12.8605; 11.8764; 11.8472; 11.8887; 11.9594; 11.8221; 11.5773; 11.2674; 10.8935; 10.4565; 9.95754; 9.39724; 8.77632; 7.90463; 7.35491; 6.55535; 6.23663; 6.52417; 6.76944; 6.97218; 7.28637; 7.58137; 8.63642; 9.60336; 10.4802; 11.2649; 11.5611; 11.2582; 10.9158; 10.5337; 10.1116; 9.64921; 9.1461; 8.60171; 7.98457; 7.38653; 6.71424; 6.2989; 7.09662; 7.84886; 8.55575; 9.21721; 9.83294; 10.4024; 10.4578; 9.2548; 9.39209; 9.45242; 10.8072; 10.7534; 10.6454 
12.6656; 12.4356; 11.8472; 11.8172; 10.7533; 11.0415; 11.2579; 11.4057; 11.4883; 11.5086; 11.4695; 11.3736; 11.2233; 11.0207; 10.768; 10.4669; 10.1191; 9.72619; 9.28951; 8.81029; 8.28963; 7.72853; 7.12785; 6.48836; 5.81073; 5.09555; 4.3433; 3.55442; 2.72924; 5.28367; 9.33761; 13.4408; 14.8364; 17.7584; 15.8962; 15.5176; 15.0785; 14.5814; 15.6182; 15.7125; 15.7613; 15.7653; 15.7248; 15.6401; 15.5111; 15.3378; 15.1198; 14.8563; 14.3204; 14.4086; 14.4209; 14.5779; 14.6915; 14.7016; 14.6086; 14.4122; 14.1122; 13.7081; 13.1991; 11.4156; 11.8628; 11.033; 10.0937; 8.7344; 8.2955; 8.95996; 9.53127; 10.0039; 10.3798; 10.6581; 11.1181; 12.1645; 13.1143; 13.4288; 13.1479; 12.8272; 12.4664; 11.9345; 11.6239; 11.1412; 10.6167; 10.0499; 9.43975; 8.78542; 8.08586; 8.23838; 9.07543; 9.86746; 10.6148; 11.3175; 11.9755; 12.5883; 12.8066; 12.8227; 11.6151; 11.6929; 13.0355; 12.9661; 12.8426 
14.8182; 14.5732; 14.2759; 13.9263; 13.5239; 12.9392; 13.1339; 13.2572; 13.3129; 13.3043; 13.2346; 13.1067; 12.9232; 12.6865; 12.3987; 11.9382; 11.6775; 11.2473; 10.7728; 10.255; 9.69521; 9.09423; 8.45293; 7.77201; 7.05206; 6.29357; 5.49693; 4.66243; 4.20972; 4.06646; 8.27107; 12.6633; 17.1035; 18.8367; 17.3209; 16.9028; 16.4184; 17.1987; 17.3347; 17.4244; 17.4686; 17.468; 17.4232; 17.3344; 17.2017; 17.0248; 16.8032; 16.4815; 16.8974; 17.3373; 17.6686; 17.8922; 18.0089; 18.019; 17.9227; 17.7199; 17.4103; 16.9931; 15.5325; 15.8325; 15.0865; 13.4281; 11.768; 11.581; 11.3118; 11.9281; 12.5266; 13.0366; 13.4587; 13.7821; 13.9843; 14.7624; 15.2712; 15.0137; 14.7163; 14.379; 14.0017; 13.5838; 13.125; 12.6245; 11.9184; 11.4954; 10.8648; 10.1888; 9.46602; 10.1487; 11.0215; 11.8502; 12.6352; 13.3769; 14.0751; 14.7298; 15.1305; 15.1343; 13.8668; 13.9639; 15.2361; 15.1502; 15.0107 
16.9467; 16.6872; 15.6236; 15.986; 15.5996; 14.8687; 15.0357; 15.1291; 15.1531; 15.1115; 15.0078; 14.8449; 14.6257; 14.3528; 14.0283; 13.6543; 13.2326; 12.7648; 11.7477; 11.6962; 11.0976; 10.4575; 9.77656; 9.05543; 8.29463; 7.49453; 6.65542; 5.77747; 4.86075; 4.09479; 7.16386; 11.8412; 16.5724; 19.9065; 18.7915; 18.332; 18.7342; 18.911; 19.0404; 19.1238; 19.1623; 19.1566; 18.9433; 18.3979; 18.2403; 18.0593; 17.8539; 17.9474; 18.4368; 20.6498; 20.9888; 21.2173; 21.3362; 21.346; 21.2468; 21.0386; 20.7209; 19.7069; 19.754; 18.2978; 16.4937; 15.0168; 14.9098; 14.7221; 14.453; 14.8941; 15.5113; 16.0389; 16.4776; 16.828; 17.0902; 17.1033; 16.8563; 16.5829; 15.7299; 15.9177; 15.5253; 15.0924; 14.6185; 14.1026; 13.5439; 12.9413; 12.2936; 11.5994; 10.8573; 12.0345; 12.9397; 13.8021; 14.6222; 15.4006; 16.1374; 16.8325; 17.4856; 17.4251; 17.3566; 16.271; 17.4137; 17.3104; 17.1545 
19.0559; 18.7825; 18.4589; 18.085; 17.6603; 16.8324; 16.9655; 17.0237; 17.0114; 16.9327; 16.7914; 16.5906; 15.6666; 15.9777; 15.6596; 15.2475; 14.7877; 14.2817; 13.731; 13.1367; 12.4999; 11.8212; 11.1016; 10.3414; 9.54109; 8.70098; 7.8212; 6.90181; 5.94274; 4.94379; 6.01117; 10.9704; 15.9897; 19.7551; 20.3134; 20.1897; 20.4499; 20.6175; 20.7384; 20.49; 19.6131; 19.5231; 19.4116; 19.2783; 19.1224; 18.9434; 18.7404; 19.0382; 19.4835; 20.0095; 20.6128; 23.6255; 24.6804; 24.6895; 23.4122; 23.6249; 23.9489; 23.3314; 21.509; 19.6609; 18.1672; 18.1386; 18.0309; 17.8438; 17.5764; 17.8642; 18.4974; 19.0404; 19.4943; 19.8595; 19.1721; 18.4471; 18.3281; 18.1403; 17.8131; 17.4468; 17.041; 16.5949; 15.8921; 15.5789; 15.007; 14.3908; 13.7291; 13.0201; 12.9231; 13.9001; 14.8346; 15.7279; 16.5807; 17.3937; 18.1672; 18.9013; 19.5959; 19.7002; 19.6179; 18.6202; 19.573; 19.4516; 19.2791 
21.1504; 20.8635; 20.528; 19.8561; 19.7104; 18.8323; 18.9256; 18.9432; 18.89; 18.7703; 18.5881; 18.3466; 18.049; 17.6979; 17.2957; 16.8443; 16.3456; 15.8011; 15.2121; 14.5797; 13.9049; 13.1885; 12.4309; 11.6327; 10.7942; 9.9155; 8.99674; 7.96221; 7.03846; 5.99841; 4.91716; 10.0461; 15.3514; 20.717; 21.8928; 21.9614; 21.2592; 21.3565; 20.6014; 20.5533; 20.4848; 20.3959; 20.286; 19.8452; 19.9616; 19.8257; 19.6264; 20.1018; 20.6212; 21.0493; 21.5283; 21.9754; 23.8667; 27.8854; 27.9528; 27.7366; 26.6851; 24.8148; 22.9223; 21.2301; 21.2766; 21.2458; 21.138; 20.9525; 20.6887; 20.8447; 21.4913; 22.0478; 22.0553; 21.353; 20.627; 19.8766; 19.101; 19.4792; 19.4125; 18.9701; 18.5523; 18.0947; 17.5966; 17.0567; 16.474; 15.847; 15.1741; 14.4536; 14.748; 15.7496; 16.7106; 17.6322; 18.5154; 19.361; 20.1695; 20.9411; 21.676; 21.9648; 21.8679; 21.0177; 21.7184; 21.5783; 21.3888 
23.2348; 22.9348; 22.5882; 22.1949; 21.7541; 21.2651; 20.9182; 20.8899; 20.7913; 20.6268; 20.4005; 19.8843; 19.7755; 19.3826; 18.9394; 18.4478; 17.9095; 17.326; 15.3014; 15.9717; 15.3159; 14.5621; 13.7675; 12.9322; 11.9434; 11.1408; 10.1846; 9.18786; 7.84976; 7.07126; 5.95029; 9.06301; 14.6527; 20.3101; 23; 22.4489; 21.5065; 21.4972; 21.4685; 21.4205; 21.3529; 21.2654; 21.1577; 21.0294; 20.8798; 20.7081; 20.5136; 21.1415; 21.5659; 22.1149; 22.5972; 23.0479; 23.4683; 24.904; 29.3632; 30.3881; 28.5348; 26.5793; 24.4743; 23.6641; 23.6221; 23.6548; 23.7623; 23.9449; 23.7965; 23.842; 24.4995; 23.7472; 23.5435; 22.8134; 22.0619; 21.2882; 20.4913; 20.1118; 20.562; 20.4562; 19.6715; 19.5954; 19.0881; 18.5395; 17.9483; 17.313; 16.6319; 16.097; 16.5638; 17.5871; 18.5718; 19.5192; 20.4306; 21.3068; 22.1486; 22.9565; 23.7306; 24.2239; 23.8884; 23.9455; 23.8544; 23.695; 23.4883 
25.3134; 25.0008; 24.6439; 23.7575; 23.7958; 23.3029; 22.9456; 22.8664; 22.7179; 22.5049; 20.6301; 20.279; 19.6463; 19.0099; 18.3685; 17.7207; 17.065; 16.3999; 15.7238; 15.035; 14.3318; 13.6124; 12.8746; 12.1163; 11.3351; 10.5112; 9.984; 10.3546; 9.28053; 7.83533; 7.00626; 8.01477; 13.8879; 23.3335; 23.2058; 22.3679; 22.3731; 22.3625; 22.3333; 22.2856; 22.2191; 22.1336; 22.0287; 21.9039; 21.7587; 21.5922; 21.4037; 22.1601; 22.652; 23.3106; 23.673; 24.1258; 24.5488; 24.943; 29.5378; 34.3435; 31.909; 29.7753; 27.289; 27.7721; 27.8968; 27.893; 27.5976; 27.217; 26.9061; 26.8626; 26.4702; 25.7495; 25.0114; 23.7448; 23.4801; 22.6851; 21.869; 21.0307; 20.9944; 21.5828; 21.4414; 21.2799; 20.5858; 19.9695; 19.4332; 18.7921; 18.1055; 17.3712; 18.3745; 19.4166; 20.4223; 21.3932; 22.3306; 23.2357; 24.1091; 24.9517; 25.7638; 26.4825; 26.3541; 26.174; 25.9747; 25.806; 25.5819 
26.935; 26.6657; 26.3655; 26.0339; 25.6702; 25.2732; 24.7323; 23.9418; 23.3914; 22.7303; 22.0731; 21.4182; 20.764; 19.891; 19.4515; 18.79; 18.1228; 17.4484; 16.7651; 15.929; 15.3643; 14.643; 13.9052; 13.1484; 12.3704; 11.5685; 10.7398; 9.88133; 8.98953; 8.09631; 8.40103; 23.3905; 24.5182; 24.3856; 23.7799; 23.1752; 23.238; 23.2275; 23.1979; 23.1506; 23.0855; 23.0024; 22.9008; 22.7802; 22.6401; 22.4798; 22.2983; 23.1606; 23.6588; 24.2424; 24.7582; 25.2114; 25.6357; 26.0321; 32.9035; 32.1188; 33.3604; 33.5427; 30.9729; 31.5683; 31.9708; 31.6454; 30.5977; 29.5587; 28.5346; 27.9183; 27.8519; 27.2276; 26.4624; 25.6818; 24.8849; 23.9295; 23.2374; 22.3841; 21.5091; 22.7043; 22.5491; 22.3755; 22.1838; 21.5333; 20.932; 19.7123; 19.5983; 19.0897; 20.1837; 21.2419; 22.2662; 23.2583; 24.2197; 25.1516; 26.0552; 26.9311; 27.7157; 27.9372; 26.5457; 25.4686; 25.0604; 25.5965; 26.9896 
27.5798; 27.8554; 27.859; 27.557; 26.9225; 26.2767; 25.6653; 25.1251; 24.5826; 23.8339; 23.2085; 22.5315; 21.8582; 21.1867; 20.5153; 19.8423; 19.166; 18.4845; 17.7961; 17.0989; 16.3911; 15.6706; 14.9352; 14.1828; 13.4109; 12.6169; 11.7978; 10.9506; 10.0718; 9.15761; 8.20368; 22.2627; 24.8543; 24.6994; 24.3525; 23.9685; 23.9743; 23.9184; 23.9359; 23.9825; 23.9541; 23.8737; 23.7759; 23.6602; 23.526; 23.3727; 23.6384; 24.1453; 24.6488; 25.1662; 25.9745; 26.3072; 26.7315; 27.9166; 32.6986; 32.119; 33.2864; 30.9138; 28.5618; 28.0633; 29.6212; 31.2542; 30.1894; 29.3003; 28.7717; 28.3129; 28.0765; 27.8379; 27.5968; 27.0961; 26.2792; 25.4474; 24.5992; 23.7332; 22.8476; 22.3211; 23.6539; 23.4685; 23.2665; 23.0479; 22.4484; 21.8032; 21.1138; 20.8904; 21.9952; 23.0668; 24.1072; 25.1184; 26.1018; 26.9125; 27.1335; 27.3548; 27.5767; 27.7998; 26.3724; 26.2595; 26.6435; 27.0268; 27.4103 
27.823; 27; 27; 27; 27.1573; 27.168; 26.521; 25.9581; 25.3952; 24.8312; 24.2649; 23.2938; 22.8888; 22.2456; 21.5625; 20.8802; 19.8033; 19.5103; 18.819; 18.121; 17.4143; 16.6969; 15.9667; 15.2213; 14.4584; 13.6753; 12.8692; 11.9629; 11.1754; 10.2803; 12.6149; 25.062; 25.1683; 25.0123; 24.8528; 24.7495; 24.8011; 24.8531; 24.9055; 24.8883; 24.8269; 24.7496; 24.656; 24.5457; 24.4181; 24.2727; 24.6076; 25.1167; 25.6244; 26.0841; 26.8949; 27.4156; 27.8387; 31.3787; 32.5895; 33.3893; 31.1757; 28.7642; 28.4545; 28.258; 29.3027; 30.3213; 30.1042; 29.5438; 29.0075; 28.5422; 28.2996; 28.0554; 27.809; 27.5601; 27.3082; 26.8188; 25.9576; 25.0809; 23.813; 23.274; 24.2636; 24.561; 24.3492; 23.8776; 23.8804; 23.3425; 22.6556; 22.6998; 23.8126; 24.8951; 25.9494; 26.3219; 26.5463; 26.7697; 26.9926; 27.2155; 27.4388; 27.6629; 26.2894; 26.2882; 26.6607; 27.0477; 27.4349 
27.0838; 27; 27; 27; 27; 27; 25.9924; 26.6907; 26.1986; 25.6177; 25.0364; 24.4533; 23.8673; 22.7644; 22.367; 21.9059; 21.2174; 20.5282; 19.8362; 19.1395; 18.4361; 17.7242; 17.0014; 16.2656; 15.5144; 14.7453; 13.9554; 13.1418; 12.3011; 12.5703; 24.5275; 24.8991; 25.3069; 25.3251; 25.1654; 25.52; 25.5659; 25.614; 25.6642; 25.7166; 25.7058; 25.6319; 25.543; 25.4387; 25.3185; 25.1816; 25.567; 26.0772; 26.5879; 27.1001; 27.8095; 28.6171; 28.9599; 32.1654; 32.5644; 32.4685; 30.3176; 29.7008; 30.1821; 31.2599; 31.5933; 31.0084; 30.4212; 29.8306; 29.2427; 28.77; 28.5218; 28.2723; 27.9788; 27.7679; 27.5121; 27.2532; 26.9907; 26.4301; 25.53; 24.6132; 24.3225; 25.6557; 25.4343; 25.1998; 24.9519; 24.69; 24.2276; 24.5218; 25.4858; 25.719; 25.9494; 26.1777; 26.4041; 26.6293; 26.8537; 27.0777; 27.3018; 27.5264; 26.4369; 26.4356; 26.6784; 27.0682; 27.4582 
27; 27; 27; 27; 25.8856; 24.4332; 24.3809; 24.3674; 25.0913; 25.7933; 25.442; 25.2083; 24.612; 23.987; 23.4098; 22.2492; 21.8577; 21.4662; 20.8496; 19.8437; 19.4585; 18.7542; 18.0412; 17.3175; 16.5807; 15.8284; 15.0578; 14.2662; 13.4504; 20.8147; 24.2569; 24.6312; 25.0115; 25.5553; 25.479; 26.2816; 26.322; 26.3661; 26.414; 26.4656; 26.5211; 26.5229; 26.4391; 26.3412; 26.2289; 26.1015; 26.5186; 27.0289; 27.5416; 28.0577; 28.7202; 29.5286; 30.0979; 32.2159; 33.0248; 32.4361; 31.8357; 32.0807; 33.1159; 32.5219; 31.9285; 31.3346; 30.7391; 30.1408; 29.4458; 29.0458; 28.8076; 28.4892; 28.2338; 27.9768; 27.7176; 27.4556; 27.1903; 26.9213; 26.6478; 25.9612; 25.0264; 25.5783; 26.5242; 26.2825; 26.0291; 25.7636; 25.1783; 25.2253; 25.3379; 25.5737; 25.8064; 26.0365; 26.2646; 26.491; 26.7163; 26.9409; 27.1653; 27.39; 26.5833; 26.5818; 26.6965; 27.0882; 27.4802 
27; 27; 25.9871; 24.5242; 23.0592; 21.589; 21.2853; 22.0803; 22.845; 23.5826; 24.2961; 24.988; 25.6609; 24.7504; 23.8585; 23.5284; 22.9095; 21.7516; 21.3648; 20.9767; 20.4835; 19.7889; 19.0881; 18.3788; 17.659; 16.9262; 15.822; 15.4116; 14.615; 23.6109; 23.9883; 24.3645; 24.7401; 25.2432; 25.7941; 26.9648; 27.0707; 27.1109; 27.1565; 27.2074; 27.2636; 27.3254; 27.3462; 27.2554; 27.1516; 27.0343; 27.4646; 27.9739; 28.4875; 29.0065; 29.6292; 30.4364; 31.0078; 32.1693; 33.9307; 33.9595; 33.9831; 34.0738; 33.468; 32.8647; 31.8854; 31.1632; 30.215; 29.2682; 28.3208; 28.6502; 29.217; 28.9774; 28.7387; 28.5006; 28.2625; 27.9761; 27.524; 27.1224; 26.8474; 26.5677; 26.2825; 25.4419; 27.6214; 27.3668; 27.3379; 25.6699; 26.0163; 25.9007; 25.8734; 25.8487; 25.8265; 25.8983; 26.1273; 26.3545; 26.5802; 26.805; 27.0292; 27.2534; 26.7287; 26.7271; 26.7262; 27.1079; 27 
26.0986; 24.6391; 23.1779; 21.7121; 20.2384; 18.7537; 18.9876; 19.8253; 20.6274; 21.3975; 22.1387; 22.8538; 23.5455; 24.2161; 24.8679; 23.8241; 23.6418; 23.0156; 22.3819; 21.276; 20.8932; 20.5079; 19.8808; 19.4514; 18.751; 18.0404; 17.3173; 16.5794; 22.9604; 23.3421; 23.7211; 24.0983; 24.4744; 24.8502; 25.4752; 27.4576; 27.8138; 27.8501; 27.8933; 27.9434; 28.0403; 28.0643; 28.1353; 28.1833; 28.0887; 28.0178; 28.407; 28.9143; 29.4278; 29.9485; 30.5382; 31.6101; 31.2365; 31.6479; 33.6608; 35.677; 34.8246; 33.8547; 32.8935; 31.939; 30.9891; 30.0421; 29.0959; 28.1486; 27.1985; 28.2517; 28.8958; 29.3836; 29.1442; 28.9062; 28.6691; 28.4323; 28.1955; 27.958; 27.7195; 27.4793; 27.2371; 26.8399; 26.0159; 26.2859; 26.178; 26.2664; 26.7385; 26.5732; 26.5405; 26.5118; 26.487; 26.466; 26.4488; 26.4352; 26.4253; 26.6696; 26.8931; 27.1164; 26.8735; 26.8719; 26.8711; 27.1273; 27 
23.2648; 21.8169; 20.3617; 18.8962; 17.4172; 16.1991; 16.7221; 17.5987; 18.4347; 19.234; 19.9599; 20.7355; 21.4434; 22.1263; 22.7864; 23.4258; 23.9104; 23.3497; 22.9749; 22.4907; 21.8429; 20.8279; 20.4492; 19.9332; 19.68; 19.1726; 18.4775; 21.0155; 22.692; 23.0749; 23.4547; 23.8322; 24.1579; 24.4361; 24.5954; 27.338; 27.2842; 27.7102; 27.5712; 27.3248; 28.7327; 28.7986; 28.8732; 28.9567; 29.0493; 28.9474; 29.3478; 29.8522; 30.3645; 30.6426; 32.6604; 31.7331; 31.4014; 31.0673; 32.4298; 33.9192; 33.6401; 32.6871; 31.7399; 30.7968; 29.8558; 28.9152; 27.973; 27.0274; 26.0765; 27.8557; 28.4964; 29.1338; 29.55; 29.3127; 29.0771; 28.8426; 28.609; 28.3756; 28.1421; 27.908; 27.9786; 26.9508; 25.9149; 25.7469; 25.5588; 25.35; 25.8773; 26.0473; 26.1954; 26.3223; 26.4288; 26.5153; 26.5821; 26.6294; 26.6571; 26.665; 26.6528; 26.3887; 26.4711; 26.5205; 26.537; 26.1503; 24.7083 
20.4111; 18.9782; 17.5324; 16.0705; 14.5897; 13.5251; 14.4856; 15.3967; 16.2629; 17.088; 17.8756; 18.6288; 19.3505; 20.0432; 20.7093; 21.3509; 21.97; 22.5683; 23.1475; 23.7092; 23.5522; 22.1366; 21.3102; 20.6355; 19.9584; 19.6633; 19.7989; 22.3153; 22.2965; 22.4747; 22.7754; 23.0655; 23.3453; 24.3848; 26.4441; 26.4111; 26.3612; 26.2945; 26.2111; 26.7273; 27.3907; 28.0271; 28.6374; 29.2226; 29.7748; 29.9047; 29.5384; 30.0085; 30.7947; 31.3448; 31.4685; 30.9048; 30.3261; 29.704; 29.5589; 31.5041; 31.4453; 31.4233; 30.572; 29.6424; 28.7124; 27.7802; 26.8442; 25.9023; 24.9528; 27.4613; 28.0973; 28.7291; 29.3581; 29.7209; 29.4872; 29.2557; 29.0257; 28.9965; 28.1738; 27.1507; 26.105; 25.0343; 23.9361; 22.864; 22.677; 22.4638; 23.2342; 23.4293; 23.5971; 23.7386; 23.8544; 23.9452; 24.0113; 24.0528; 24.0696; 22.9858; 21.9841; 22.1311; 22.2238; 22.2753; 22.286; 23.249; 21.8338 
17.5313; 16.1169; 14.6837; 13.229; 11.7499; 11.2799; 12.2747; 13.216; 14.1083; 14.9556; 15.7617; 16.5296; 17.2623; 17.9624; 18.6323; 19.274; 19.8894; 20.4804; 21.0483; 21.5947; 22.1208; 22.6277; 23.1164; 23.123; 21.8345; 20.5666; 20.471; 23.5521; 23.2367; 23.2273; 23.2316; 23.2496; 23.4395; 25.528; 25.5187; 25.4908; 25.4447; 25.3805; 25.2981; 25.1975; 24.9896; 25.6147; 26.2093; 26.7743; 27.3103; 27.8176; 28.1831; 28.9095; 29.4664; 30.0032; 30.0887; 29.5361; 28.9589; 28.3197; 28.3484; 28.5982; 28.9847; 28.9766; 28.9154; 28.4732; 27.5563; 26.6348; 25.7069; 24.7709; 24.175; 27.0677; 27.6975; 28.3225; 28.9437; 29.5624; 29.9005; 29.1484; 28.2017; 27.2344; 26.2448; 25.2311; 24.1914; 23.1233; 22.0244; 20.8921; 19.7864; 19.5695; 20.5883; 20.8075; 20.9941; 21.1494; 21.2741; 21.3689; 20.3604; 19.5875; 18.7277; 17.7771; 16.7308; 17.8639; 17.9665; 18.0201; 17.0752; 19.6851; 18.9298 
14.619; 13.2263; 11.8094; 10.3655; 8.89169; 9.06223; 10.0861; 11.0529; 11.9672; 12.8331; 13.6542; 14.4337; 15.1747; 15.8796; 16.5509; 17.1905; 17.8003; 18.3819; 18.9368; 19.4662; 19.9713; 20.4528; 20.9116; 21.3483; 21.7632; 22.1566; 23.2204; 24.4899; 23.9872; 22.7251; 22.9145; 22.9547; 23.7488; 24.4475; 24.579; 24.5753; 24.5329; 24.4711; 24.3899; 24.2893; 24.169; 24.0287; 23.7722; 24.316; 24.8263; 25.3032; 26.0557; 27.474; 28.1376; 28.6601; 28.7035; 28.1633; 27.5704; 26.944; 26.2872; 25.6852; 26.5426; 26.5476; 26.4965; 26.39; 26.2282; 25.4764; 24.5589; 23.631; 22.9372; 26.6741; 27.2962; 27.9128; 28.525; 27.9729; 26.9795; 26.3485; 25.597; 24.7928; 24.3094; 23.3076; 22.2764; 21.2137; 20.1173; 18.9843; 17.7912; 16.9714; 17.9345; 18.1765; 18.3811; 17.0629; 16.5421; 15.9345; 15.2381; 14.4503; 13.5676; 12.5861; 10.5567; 13.5781; 13.6901; 13.7455; 12.1478; 17.3415; 15.9899 
11.6672; 10.2999; 8.90274; 7.47335; 5.75671; 6.86928; 7.91672; 8.90412; 9.83602; 10.7165; 11.5491; 12.3371; 13.0834; 13.7905; 14.4606; 15.0958; 15.6979; 16.2683; 16.8084; 17.3192; 17.8016; 18.2563; 18.6839; 19.0845; 19.4582; 20.1518; 20.2494; 20.4642; 19.3633; 20.6539; 21.6617; 22.0789; 22.4666; 23.0139; 23.1551; 23.2613; 23.3334; 23.372; 23.3776; 23.3505; 23.2632; 23.1209; 22.9569; 22.7706; 22.5611; 22.7724; 23.9368; 25.3237; 26.6633; 27.3126; 27.31; 26.7671; 26.1862; 25.5741; 24.93; 24.253; 24.1139; 24.1311; 24.0898; 23.9905; 23.8334; 23.6184; 23.345; 22.48; 22.5175; 26.2796; 26.8926; 26.6322; 25.6676; 24.6346; 23.7137; 23.187; 22.497; 21.749; 20.9447; 20.0854; 19.172; 18.2047; 17.1835; 16.1079; 14.9771; 13.0312; 12.8942; 12.6635; 12.34; 11.9238; 11.4144; 10.8106; 10.1104; 9.31133; 8.41014; 7.40281; 9.07941; 9.26445; 9.3852; 5.58868; 9.48365; 14.3219; 13.0072 
8.66899; 7.33053; 5.95699; 4.54602; 4.43435; 4.69827; 5.76353; 6.76638; 7.71126; 8.60211; 9.44249; 10.2355; 10.984; 11.6905; 12.357; 12.9856; 13.5778; 14.135; 14.6584; 15.1489; 15.6072; 16.0338; 16.4289; 16.7924; 17.1241; 18.0442; 18.165; 17.8103; 18.1125; 19.9789; 20.4123; 20.8147; 21.3164; 21.5865; 21.7362; 21.8495; 21.9274; 21.9705; 21.9792; 21.9538; 21.8944; 21.8008; 21.6725; 21.5091; 20.4281; 21.0929; 21.2563; 22.8545; 24.3734; 25.7313; 25.8989; 25.3671; 24.766; 23.8838; 22.898; 21.8074; 21.9522; 21.4537; 21.0562; 20.6076; 20.1083; 19.5582; 19.01; 18.4023; 20.5475; 24.9428; 24.1362; 23.2601; 22.3132; 20.9967; 20.5179; 19.9155; 19.385; 18.6925; 17.9391; 17.1262; 16.2547; 15.3252; 14.3378; 13.292; 12.1872; 8.81807; 7.64781; 7.45261; 7.15696; 6.76122; 6.26505; 5.66741; 4.96658; 4.16013; 3.24493; 2.21709; 4.71324; 4.91335; 5.04235; 0.963963; 6.47395; 11.2488; 9.97449 
5.61667; 4.31088; 2.96487; 1.57648; 1.40062; 2.54652; 3.62353; 4.63639; 5.58934; 6.4862; 7.33036; 8.12485; 8.87234; 9.57518; 10.2354; 10.8549; 11.435; 11.9771; 12.4821; 12.9507; 13.3835; 13.7808; 14.1423; 14.4679; 15.7488; 15.9545; 16.096; 15.2634; 14.7563; 15.6; 18.1145; 19.5502; 19.9671; 20.1626; 20.3196; 20.4391; 20.5221; 20.5691; 20.5807; 20.5571; 19.9554; 19.1273; 18.1731; 17.0903; 18.612; 20.0129; 21.3841; 19.819; 18.2511; 22.6021; 22.1652; 21.206; 20.464; 19.6153; 18.6596; 18.6555; 19.6925; 21.5276; 19.7335; 18.5275; 18.0507; 17.5216; 16.5091; 14.5625; 17.0797; 21.5026; 20.7242; 19.8723; 18.946; 17.8513; 17.3833; 16.7951; 16.2554; 15.6176; 14.9148; 14.1485; 13.3197; 12.4292; 11.4771; 10.4631; 9.38673; 5.76949; 2.3657; 2.20569; 1.93832; 1.56416; 1.08306; 0.494156; -0.204097; -1.01396; -1.93841; -3.98482; 0.301; 0.515046; -3.77249; -4.69179; 3.53814; 7.88533; 6.88408 
2.50221; 1.23304; -0.0812807; -1.96735; -0.740639; 0.411429; 1.49379; 2.51089; 3.46674; 4.36493; 5.20866; 6.00078; 6.74381; 7.43995; 8.09112; 8.69893; 9.26473; 9.78962; 10.2744; 10.7197; 11.1257; 11.4924; 11.8196; 12.1067; 13.6539; 13.877; 13.1201; 12.7762; 12.3287; 12.2184; 12.8001; 15.157; 17.3051; 17.5123; 17.5868; 17.5314; 17.3485; 17.0395; 16.6054; 16.0464; 15.3622; 14.5517; 14.7897; 16.2027; 17.584; 18.9344; 18.7821; 17.3332; 16.0666; 19.7799; 18.6087; 17.3318; 16.1506; 15.337; 16.4223; 16.1713; 17.4393; 19.2062; 19.0911; 18; 15.7859; 13.8468; 12.0894; 9.46674; 13.7011; 18.0351; 17.2868; 16.4617; 15.0974; 14.7575; 14.3018; 13.7296; 13.0402; 12.5183; 11.8658; 11.1463; 10.361; 9.51057; 8.59545; 7.61549; 6.57017; 2.77043; -2.96287; -3.08821; -3.32701; -3.67854; -4.14276; -4.72034; -5.41266; -6.22177; -7.15045; -4.4787; -4.16737; -4.0593; -10.2341; -5.49984; 0.667825; 4.91113; 3.72781 
-0.683019; -1.91143; -3.18963; -3.91465; -2.86029; -1.70954; -0.628578; 0.386674; 1.33991; 2.23444; 3.07323; 3.85892; 4.59383; 5.27998; 5.91909; 6.51263; 7.06176; 7.56741; 8.03022; 8.45056; 8.82851; 9.16388; 9.45615; 11.2666; 11.5687; 11.8062; 10.6342; 10.3408; 9.94942; 9.46373; 8.88754; 9.68005; 11.8117; 12.7288; 12.8339; 12.8077; 12.6523; 12.3695; 11.96; 11.4243; 10.7621; 12.4822; 13.8728; 15.2313; 15.6334; 14.3604; 15.0017; 15.5822; 18.2135; 16.5132; 16.2358; 14.7843; 13.2269; 8.35855; 13.1789; 13.6905; 15.1876; 16.9796; 19.412; 13.4168; 12.1623; 9.42418; 7.66025; 6.17582; 10.5825; 14.5327; 13.8165; 13.0206; 12.0381; 11.7077; 11.2657; 10.7114; 10.0443; 9.26353; 8.78578; 8.11331; 7.37218; 6.56325; 5.68695; 4.7433; 3.73191; -0.186516; -8.0552; -8.44038; -8.65053; -8.97846; -9.42399; -9.98759; -10.6704; -11.4744; -13.3358; -9.03016; -8.70244; -13.4209; -15.3618; -6.8255; 2.71487; 1.62933; 0.496912 
-3.94835; -5.13162; -6.36897; -6.17514; -4.9604; -3.81883; -2.74643; -1.73952; -0.79478; 0.0907707; 0.919814; 1.69473; 2.4176; 3.09023; 3.71415; 4.29063; 4.82065; 5.30496; 5.74401; 6.13799; 6.48681; 6.79006; 7.04704; 9.17566; 9.48781; 8.3471; 8.1963; 7.94989; 7.61114; 7.18344; 6.6703; 6.07537; 6.20935; 8.04334; 8.06366; 8.0643; 7.93532; 7.67824; 7.29405; 8.87546; 10.2704; 11.6331; 10.5552; 11.3279; 12.0443; 12.7038; 13.3054; 13.8483; 15.793; 13.3794; 12.4132; 12.4018; 14.5043; 12.3959; 9.36946; 11.5083; 13.3341; 15.3506; 10.9608; 7.78141; 4.68737; 1.42009; 0.876277; 3.31376; 7.47507; 10.9873; 10.3052; 9.22703; 9.0142; 8.69454; 8.26774; 7.73338; 7.09098; 6.33996; 5.66827; 5.04305; 4.34693; 3.58085; 2.74533; 1.84051; 0.866163; -3.10838; -11.2561; -13.8626; -14.0442; -14.3477; -14.7727; -15.3195; -15.9892; -16.7834; -17.8734; -13.657; -13.3153; -19.9014; -17.7164; -9.31955; -0.714547; -1.74029; -2.81813 
-7.30391; -8.43739; -9.50856; -8.23822; -7.04291; -5.91885; -4.86259; -3.87094; -2.941; -2.07014; -1.25603; -0.49657; 0.210053; 0.865405; 1.47079; 2.02728; 2.53565; 2.99646; 3.40999; 3.77624; 4.09496; 4.36556; 6.70525; 7.08733; 7.40619; 5.91312; 5.79969; 5.59669; 5.3071; 4.93399; 4.48058; 3.95018; 3.34622; 2.67225; 3.26666; 3.29169; 4.04127; 5.42195; 5.62784; 6.55957; 7.44074; 8.27058; 9.04836; 9.7733; 10.4446; 11.0614; 11.6228; 12.1278; 13.275; 12.0994; 4.17941; 7.15778; 11.578; 10.4166; 7.15738; 5.16073; 7.93175; 4.67219; 5.48349; 4.05032; 2.62367; 1.50536; 0.49844; 0.463949; 4.37223; 7.39073; 6.74487; 6.22448; 6.01863; 5.7109; 5.30104; 4.78875; 4.17366; 3.45538; 2.63347; 1.92865; 1.27841; 0.556672; -0.235937; -1.09916; -2.03308; -6.00186; -13.6639; -19.1087; -19.5205; -19.7987; -20.2014; -20.7287; -21.3813; -22.5301; -18.8237; -18.3708; -23.5993; -26.3675; -17.7385; -11.7636; -4.24559; -5.20818; -6.22763 
-10.7608; -11.8395; -11.514; -10.276; -9.10965; -8.01192; -6.97989; -6.01091; -5.10252; -4.25253; -3.45893; -2.71998; -2.03414; -1.40011; -0.816826; -0.283454; 0.200605; 0.635708; 1.02196; 1.35921; 1.64703; 4.16832; 4.61387; 4.99677; 3.51165; 3.51775; 3.43797; 3.2748; 3.03091; 2.70904; 2.31209; 1.84303; 1.30496; 0.701072; 0.147747; 1.32722; 2.4153; 3.44554; 4.36213; 5.23235; 6.05528; 6.83004; 7.55574; 8.23152; 8.85648; 9.42971; 9.95027; 10.4172; 10.7968; 10.7913; 7.30697; 4.43017; 3.8893; 1.39582; 2.89044; -0.742222; 3.46755; 2; 2; 2; 3.4565; 2.35392; 1.41442; 0.631256; 1.2673; 3.73405; 3.34406; 3.2424; 3.04445; 2.75003; 2.35894; 1.87098; 1.28594; 0.603593; -0.176289; -1.05392; -1.84056; -2.51631; -3.26368; -4.08228; -4.97207; -8.87343; -16.0329; -22.7981; -25.0927; -25.3451; -25.7236; -26.2283; -27.2283; -24.2158; -24.3526; -27.764; -30.2044; -27.1939; -18.1092; -14.1634; -8.11034; -8.78574; -9.74288 
-14.3311; -14.7493; -13.4844; -12.2896; -11.1623; -10.1003; -9.10115; -8.16279; -7.28326; -6.46079; -5.69377; -4.98079; -4.32065; -3.71231; -3.15497; -2.64802; -2.19107; -1.78394; -1.42669; -1.11962; 1.58001; 2.08043; 2.51962; 1.01521; 1.12577; 1.15506; 1.10514; 0.978188; 0.776508; 0.502535; 0.158815; -0.252002; -0.72717; -1.26386; -1.30041; -0.0957352; 0.834652; 1.78816; 2.68995; 3.53828; 4.33142; 5.06763; 5.74516; 6.36225; 6.91713; 7.408; 7.83301; 8.19031; 8.47803; 8.04741; 7.39853; 5.17442; 3.97033; 2.24623; 3.67999; 2.96889; 1.70332; 1.78766; 1.76689; 2; 1.79335; 1.34198; 1.80738; 1.71969; 1.32897; 0.145963; 0.372438; 0.273933; 0.0849437; -0.194664; -0.565007; -1.02619; -1.57828; -2.22134; -2.95539; -3.78041; -4.6963; -5.7029; -6.34514; -7.11581; -7.95738; -11.7293; -18.3681; -25.0859; -29.2902; -31.0008; -31.3534; -31.9734; -31.6797; -29.1543; -32.4267; -34.5418; -35.2199; -26.3852; -20.1739; -16.5239; -12.3407; -12.4855; -13.3763 
-17.8959; -16.6249; -15.4202; -14.28; -13.2026; -12.1862; -11.2292; -10.3301; -9.48728; -8.69957; -7.96572; -7.28468; -6.65557; -6.07767; -5.5504; -5.0734; -4.64648; -4.26963; -3.94308; -1.03949; -0.495313; -0.00991273; -1.54958; -1.35147; -1.22897; -1.18054; -1.20447; -1.29892; -1.46192; -1.69137; -1.98506; -2.34068; -2.75584; -3.86987; -2.715; -1.60843; -0.663908; 0.133441; 0.955953; 1.72876; 2.45013; 3.11838; 3.7318; 4.28873; 4.78746; 5.22634; 5.60367; 5.91778; 6.19284; 6.67231; 5.20202; 4.62006; 4.12817; 3.28857; 2.67252; 1.50979; 1.3285; 1.43241; 0.916031; 0.890641; 0.0618493; 0.531602; 1.04671; 1.13067; 0.580853; -0.990025; -2.55672; -3.84714; -3.31116; -3.12963; -3.47708; -3.90885; -4.4249; -5.02512; -5.70933; -6.4773; -7.32868; -8.26305; -9.27984; -10.2071; -10.996; -14.5758; -20.6741; -26.8448; -31.0717; -35.169; -36.7676; -36.407; -36.0389; -37.6168; -40.5899; -41.3778; -33.5913; -25.6089; -22.1954; -18.8503; -15.5682; -16.3212; -17.1416 
-19.6446; -18.4534; -17.3216; -16.248; -15.2318; -14.2717; -13.3669; -12.5163; -11.7188; -10.9738; -10.2803; -9.63772; -9.04548; -8.50315; -8.01043; -7.56715; -7.17334; -4.2942; -3.66418; -3.09018; -2.57136; -4.15264; -3.88574; -3.68779; -3.55774; -3.49438; -3.49634; -3.5621; -3.69002; -3.87836; -4.12523; -4.42868; -4.78664; -5.13991; -4.10015; -3.10295; -2.15062; -1.38566; -0.776472; -0.08075; 0.567634; 1.16704; 1.71586; 2.2125; 2.6554; 3.04302; 3.37385; 3.64638; 3.92247; 4.36185; 4.73939; 0.694089; 0.989053; 0.905329; 0.0306306; -0.04; 0.381243; 0.0624263; -1.13319; -3.40841; -2.80157; -2.7892; -1.79185; -0.530075; -0.316798; -1.45648; -3.31097; -5.1594; -6.44501; -7.93022; -9.43265; -10.1911; -9.52669; -9.15185; -9.06741; -9.1496; -9.93142; -10.7881; -11.7189; -13.0166; -14.6807; -22.5942; -32.1962; -35.9239; -34.6554; -42.29; -43.9134; -42.2877; -43.3601; -44.8374; -46.4811; -39.1846; -31.8238; -27.2687; -24.1773; -19.0251; -19.6316; -20.3083; -20.8961 
-21.3318; -20.2341; -19.1883; -18.1942; -17.2512; -16.359; -15.5171; -14.7251; -13.9824; -13.2887; -12.6435; -12.0465; -11.4975; -10.9964; -10.543; -7.58782; -6.89916; -6.26158; -5.67478; -7.1371; -6.76036; -6.4453; -6.19153; -5.99851; -5.86549; -5.79157; -5.77572; -5.81674; -5.91332; -6.06404; -6.26735; -6.52162; -7.33825; -6.38168; -5.45968; -4.57462; -3.72874; -2.9241; -2.26153; -1.8154; -1.32014; -0.790572; -0.306973; 0.129194; 0.5165; 0.853557; 1.13902; 1.37159; 1.65626; 2.05272; 2.39347; 3.27624; 2.91558; 0.544196; -2.94473; -3.75561; -4.88756; -4.77294; -6.20728; -2.60383; -3.79997; -1.06219; -0.158618; -0.56323; -1.31232; -2.08658; -3.04557; -4.67143; -6.28647; -7.88548; -9.46331; -11.0148; -11.4653; -14.0179; -15.1796; -15.4622; -17.8896; -19.2314; -19.4411; -21.8627; -22.9479; -28.6752; -34.1835; -37.2245; -42.5871; -46.718; -47; -47.2622; -47.0265; -49.3291; -43.0354; -36.4879; -31.6865; -28.8811; -26.1229; -23.3397; -23.8664; -23.6833; -22.4815 
-22.9556; -21.9657; -21.02; -20.1187; -19.262; -18.45; -17.6828; -16.9604; -16.2828; -15.6498; -15.0616; -14.5181; -11.5502; -10.7953; -10.0838; -9.41602; -10.6734; -10.1755; -9.72942; -9.33579; -8.99486; -8.70671; -8.47122; -8.2881; -8.15692; -8.07705; -8.04776; -8.06817; -8.13728; -8.25398; -8.41705; -9.28656; -8.42911; -7.59852; -6.79715; -6.02723; -5.29085; -4.58998; -3.92646; -3.29121; -2.93268; -2.6059; -2.31177; -1.96563; -1.63374; -1.3466; -1.10537; -0.911154; -0.610641; -0.951797; 0.137695; 0.49424; 0.800966; 1; -3.73621; -11.8492; -10.2184; -10.5987; -3.94995; -1.76995; -0.144971; -0.427559; -1.02756; -1.65323; -2.30273; -2.97415; -3.66551; -4.3748; -5.56925; -6.9469; -8.30551; -9.64049; -10.9473; -12.2212; -13.458; -14.6529; -16.1983; -16.8999; -17.9433; -23.2759; -29.3179; -35.7006; -37.0833; -39.2921; -43.5503; -47.9913; -51.3912; -49.6634; -46.5609; -43.3497; -40.0391; -36.639; -33.2978; -30.4477; -27.9652; -27.3442; -26.1844; -25.0656; -23.9891 
-23.1588; -22.2142; -21.2781; -20.3543; -19.4463; -18.5575; -17.6906; -16.8482; -16.0325; -15.2457; -14.4893; -15.3991; -14.7745; -14.1861; -13.6357; -13.1246; -12.6542; -12.2254; -11.8391; -11.496; -11.1964; -10.9406; -10.7288; -10.5608; -10.4366; -10.3556; -10.3175; -10.3217; -10.3674; -11.7224; -10.9618; -10.2186; -9.49513; -8.79351; -8.11592; -7.46438; -6.8408; -6.24696; -5.68458; -5.15525; -4.66045; -4.19683; -3.94877; -3.7298; -3.54065; -3.382; -3.25449; -3.15868; -2.90897; -2.78185; -2.66177; -2.54914; -2.44435; -2.3478; -2.25981; -3.08534; -3.48484; -2.07076; -0.667005; -0.822499; -1.22682; -1.709; -2.21469; -2.7423; -3.29017; -3.85661; -4.43985; -5.03808; -5.64946; -6.27205; -7.13552; -8.253; -9.34594; -10.4104; -11.4426; -12.6403; -17.0284; -21.9294; -27.2562; -31.2053; -35.252; -35.8539; -36.7234; -36.9828; -36.9241; -36.548; -35.8562; -34.8513; -33.5368; -31.9172; -29.9976; -27.7845; -26.0198; -26.8238; -27.2378; -27.5475; -26.4193; -25.6005; -24.1076 
-23.5648; -22.9089; -22.2525; -21.5988; -20.9511; -20.3123; -19.6853; -19.0729; -18.4775; -17.9017; -17.3477; -16.8174; -16.3128; -15.8356; -15.3873; -14.9693; -14.5826; -14.2284; -13.9075; -13.6205; -13.368; -13.1504; -12.968; -12.8208; -12.7088; -12.632; -14.245; -13.6032; -12.9681; -12.342; -11.7271; -11.1254; -10.5389; -9.96955; -9.41919; -8.88955; -8.3823; -7.89902; -7.44119; -7.01023; -6.60745; -6.23409; -5.8913; -5.58015; -5.27501; -5.14864; -5.0482; -4.97417; -4.92694; -4.90687; -3.76468; -2.96556; -2.88135; -2.80383; -2.73329; -3.0582; -3.1085; -3.45558; -3.53459; -3.65806; -3.82544; -4.03609; -4.28917; -4.58373; -4.91867; -5.29273; -5.70454; -6.1526; -6.63527; -7.15079; -7.69729; -8.35118; -8.9898; -9.65686; -10.3499; -12.7265; -13.2469; -17.0186; -16.4718; -22.2865; -21.297; -20.5627; -20.0854; -20.1337; -20.0943; -19.7969; -20.304; -20.47; -21.2287; -21.9691; -25.3121; -24.6177; -24.0493; -24.2825; -24.5728; -24.8182; -25.0178; -25.1707; -24.2168 
-22.5528; -22.5651; -22.5431; -22.4869; -22.3971; -20.7761; -19.6885; -19.8562; -19.4122; -18.9813; -18.5652; -18.1654; -17.7836; -17.421; -17.079; -16.7586; -16.4609; -16.1867; -15.9369; -15.712; -15.5127; -15.9686; -15.6825; -15.8337; -15.3469; -14.8589; -14.3716; -13.8869; -13.4066; -12.9323; -12.4658; -12.0088; -11.5628; -11.1293; -10.71; -10.3061; -9.91901; -9.55006; -9.20045; -8.87135; -8.56382; -8.2789; -8.01754; -7.7806; -7.56889; -7.38315; -7.22403; -7.09211; -6.98792; -6.91187; -6.86431; -6.84553; -6.85927; -6.70711; -6.56744; -6.44212; -6.37119; -6.35483; -6.39571; -6.48766; -6.63184; -6.83148; -7.0836; -7.38719; -7.66411; -7.95175; -8.27127; -8.62148; -9.00107; -9.40862; -9.84263; -10.3015; -10.7835; -11.2868; -11.8096; -12.35; -12.9058; -13.4751; -14.0556; -17.3548; -16.7584; -16.1575; -16.4456; -17.0485; -17.649; -18.2445; -18.8327; -19.4114; -20.022; -20.5303; -21.0661; -21.5831; -21.5167; -21.7629; -21.9777; -22.1601; -22.3093; -22.4247; -22.506 
-19.8303; -19.8411; -19.8297; -19.7962; -19.7407; -19.6636; -19.5654; -19.4465; -19.3075; -19.1492; -18.9723; -18.7777; -18.5662; -18.3389; -18.0967; -17.8408; -17.5723; -17.2924; -15.8131; -15.297; -15.604; -15.9175; -15.7638; -15.4412; -15.116; -14.7893; -14.4626; -14.137; -13.8138; -13.4943; -13.1795; -12.8707; -12.569; -12.2755; -11.9912; -11.7173; -11.4545; -11.204; -10.9666; -10.743; -10.5342; -10.3409; -10.1637; -10.0032; -9.86016; -9.73497; -9.62813; -9.54005; -9.47107; -9.42148; -9.39151; -9.3813; -9.39097; -9.42053; -9.46996; -9.53914; -9.78001; -9.78089; -9.80686; -9.85777; -9.9334; -10.0334; -10.1575; -10.305; -10.4755; -10.6683; -10.8825; -11.1175; -11.3723; -11.6459; -11.9373; -12.2454; -12.569; -12.9068; -13.2576; -13.62; -13.9927; -14.3742; -14.763; -15.1576; -15.5565; -16.0418; -16.361; -16.7633; -17.1637; -17.5604; -17.9519; -18.3367; -18.7131; -18.5439; -18.7613; -18.961; -19.142; -19.3034; -19.4447; -19.5652; -19.6643; -19.7417; -19.7971 
-17.1602; -17.1669; -17.1628; -17.1479; -17.1222; -17.086; -17.0394; -16.9827; -16.916; -16.8396; -16.754; -16.6595; -16.5565; -16.4454; -16.3268; -16.2011; -16.0688; -15.9306; -15.787; -15.6386; -15.486; -15.3298; -15.1707; -15.0093; -14.8462; -14.6821; -14.5177; -14.3536; -14.1904; -14.0288; -13.8694; -13.7128; -13.5596; -13.4104; -13.2658; -13.1263; -12.9925; -12.8648; -12.7438; -12.6298; -12.5234; -12.425; -12.3348; -12.2533; -12.1808; -12.1175; -12.0637; -12.0196; -11.9854; -11.9612; -11.9471; -11.9432; -11.9496; -11.9661; -11.9928; -12.0296; -12.0764; -12.1329; -12.1991; -12.2747; -12.3593; -12.4528; -12.5547; -12.6646; -12.7823; -12.9071; -13.0387; -13.1765; -13.3201; -13.4687; -13.6219; -13.7791; -13.9395; -14.1027; -14.2678; -14.4343; -14.6014; -14.7685; -14.9348; -15.0997; -15.2625; -15.4225; -15.5791; -15.7314; -15.879; -16.0212; -16.1574; -16.2869; -16.4093; -16.524; -16.6306; -16.7285; -16.8174; -16.8968; -16.9665; -17.0262; -17.0756; -17.1145; -17.1427 